; $Id: compiler.ll 3987 2011-07-04 11:27:12Z llh $

(defvar *target-channel* (when (boundp '*target-channel*) *target-channel*))
(defvar *debug-channel* (when (boundp '*debug-channel*) *debug-channel*))
(defvar *translator-name* (when (boundp '*translator-name*) *translator-name*))
(defvar *source-lang* (when (boundp '*source-lang*) *source-lang*))
(defvar *target-lang* (when (boundp '*target-lang*) *target-lang*))
(defvar *source-lang-filename* (when (boundp '*source-lang-filename*) *source-lang-filename*))
(defvar *target-lang-filename* (when (boundp '*target-lang-filename*) *target-lang-filename*))
(defvar *contexts* (when (boundp '*contexts*) *contexts*))
(defvar *topswitch* (when (boundp '*topswitch*) *topswitch*))
(defvar *topswitchspecific* (when (boundp '*topswitchspecific*) *topswitchspecific*))
(defvar *nonspecificrules* (when (boundp '*nonspecificrules*) *nonspecificrules*))
(defvar *catchalls* (when (boundp '*catchalls*) *catchalls*))
(defvar *matchStarTests* (when (boundp '*matchStarTests*) *matchStarTests*))
(defvar *matchStarTestsNum* (when (boundp '*matchStarTestsNum*) *matchStarTestsNum*))
(defvar *userCalls* (when (boundp '*userCalls*) *userCalls*))
(defvar *ruleUserCallRank* (when (boundp '*ruleUserCallRank*) *ruleUserCallRank*))
;;;;;;;;;;;;;;;;;;;;;;;;;;;;;;;;;;;;;;;;;;;;;;;;;;;;;;;;;;;;;;;;;;;;;;;;;;;;;;;;
(de compile-ttml (source-filename . target-rootname)
    ;;Load the source file:
    (let ((source-tree 
	        (tag parser-error (parse-file source-filename (find-syntax 'ttml ()) ())))
	  target-filename)
     (if (typep source-tree '#:parser-error)
	 ;;If syntax error, complain and stop.
	 (print "###> TTML file error: syntax error in " source-filename ", line "
		(send 'line-number source-tree))
       ;;else continue compilation:
       (setq *translator-name* (tgo source-tree 1 atval))

       ;;Open the c file that will contain the result:
       (when target-rootname (setq target-rootname (car target-rootname)))
       (when (null target-rootname)
	 (let ((indx (index ".ttml" source-filename))
	       )
	   (setq target-rootname
		 (if indx (substring source-filename 0 indx) source-filename))
       ))
       (setq target-filename (concat target-rootname ".c"))
       (setq *target-channel* (openo target-filename))
       (setq *debug-channel* (openo "debug.out")) ;;Debug
       ;(print "target file " target-filename " opened!")

       ;;Load the source language:
       (let ((source-lang-name (tgo source-tree 2 atval))
	     channel line oper
	     )
	 (setq *source-lang-filename* (concat "tables" source-lang-name ".c"))
	 (setq channel (openi *source-lang-filename*))
	 (setq *source-lang* (#:language:make))
	 (#:language:name *source-lang* source-lang-name)
	 (while (setq line (readnextline channel))
	    (when (setq oper (#:oper:create-from-line line))
	       (#:language:add-oper *source-lang* oper)))
	 (#:language:build *source-lang*)
	 (ifn (eq (car (channel channel)) 0)
	   (close channel)
	   ;(print "!! Already closed !!")
	   )
	 ;(print "source language " source-lang-name " loaded!")
       )
	 
       ;;Load the target language:
       (let ((source-lang-name (tgo source-tree 2 atval))
	     (target-lang-name (tgo source-tree 3 atval))
	     channel line oper
	     )
	 (if (equal source-lang-name target-lang-name)
	    (setq *target-lang* *source-lang*)
            ;; We assume the target language is IL, hence in .../front/tables:
	    (setq *target-lang-filename*
		  (concat "../../build/generated-src/c/main/front/tables" target-lang-name ".c"))
	    (setq channel (openi *target-lang-filename*))
	    (setq *target-lang* (#:language:make))
	    (#:language:name *target-lang* target-lang-name)
	    (while (setq line (readnextline channel))
	      (when (setq oper (#:oper:create-from-line line))
		(#:language:add-oper *target-lang* oper)))
	    (#:language:build *target-lang*)
	    (ifn (eq (car (channel channel)) 0)
		(close channel)
		;(print "!! Already closed !!")
	    )
	    ;(print "target language " target-lang-name " loaded!")
       ))

       ;;Preprocess all the rules:
       (setq *contexts* (list (cons () 0)))
       (setq *topswitch*
	     (makevector (add1 (#:language:nbOpers *source-lang*)) ()))
       (setq *topswitchspecific*
	     (makevector (add1 (#:language:nbOpers *source-lang*)) ()))
       (setq *nonspecificrules* ())
       (setq *catchalls* ())
       (setq *matchStarTests* ())
       (setq *matchStarTestsNum* 0)
       (setq *userCalls* ())
       (let ((rules (tgo source-tree 4 sons))
	     rule ttmlrule)
	 (while (nextl rules rule)
	   (setq ttmlrule (#:ttmlrule:create rule))
	   (selectq (#:ttmlrule:sourceKind ttmlrule)
	      (1  (if (#:ttmlrule:opername ttmlrule)
		     (let ((i (#:oper:rank
			       (#:language:name-oper
				*source-lang* (#:ttmlrule:opername ttmlrule)))))
		       (vset *topswitch* i
			     (append1 (vref *topswitch* i) ttmlrule))
		       ;;Means there will be a specific function for this operator:
		       (vset *topswitchspecific* i t))
		     (let ((i (sub1 (vlength *topswitch*)))
			   )
		       (#:ttmlrule:catchallRank ttmlrule 
			  (if *catchalls*
			      (add1 (#:ttmlrule:catchallRank (car *catchalls*)))
			    1))
		       (newl *catchalls* ttmlrule)
		       (while (ge (decr i) 0)
			 (vset *topswitch* i
			       (append1 (vref *topswitch* i) ttmlrule)))
		       (newr *nonspecificrules* ttmlrule)))
		  )
	      (-1 (let ((i (sub1 (vlength *topswitch*))))
		    (vset *topswitch* i
			  (append1 (vref *topswitch* i) ttmlrule)))
		  )
	      (t  (let ((i (vlength *topswitch*))
			)
		    (#:ttmlrule:catchallRank ttmlrule 
		        (if *catchalls* (add1 (#:ttmlrule:catchallRank (car *catchalls*))) 1))
		    (newl *catchalls* ttmlrule)
		    (while (ge (decr i) 0)
		      (vset *topswitch* i
			    (append1 (vref *topswitch* i) ttmlrule)))
		    (newr *nonspecificrules* ttmlrule))
		  )
       )))

       ;;Generate the compiled file:
       (generate-header)
       (let ((in-catchalls *catchalls*)
	     catchall
	     )
	  (while (nextl in-catchalls catchall)
	     (generate-catchall catchall)
	     (tg-print)
       ))
       (let ((in-matchStarTests *matchStarTests*)
	     matchStarTest
	     )
	  (while (nextl in-matchStarTests matchStarTest)
	     (#:matchStarTest:generate matchStarTest)
	     (tg-print)
       ))
       (setq *matchStarTestsNum* 0)
       (let* ((dotHfilename (catenate *translator-name* "userFunctions.h"))
	      (dotCfilename (catenate *translator-name* "userFunctions.c"))
	      (dotHchannel (openo dotHfilename))
	      userCall
	      )
	 (when *userCalls*
	   (tg-print "#include """ dotCfilename """")
	   (tg-print)
	   )
	 (with ((outchan dotHchannel)
		(rmargin 150))
	       (when *userCalls*
		    (print "#include ""../front/cvtp.h""")
		    (print)
		    (while (nextl *userCalls* userCall)
		      (#:userCall:generate (cdr userCall) *translator-name*)))
	       (print)
	       (close dotHchannel)
       ))
       (let ((i -1)
	     (nbTreeRules (sub1 (vlength *topswitch*)))
	     (needsNonSpecificTreeRule ())
	     )
	  (while (lt (incr i) nbTreeRules)
	    (if (vref *topswitchspecific* i)
	      (generate-oprules (vref *topswitch* i) i)
	      (setq needsNonSpecificTreeRule t)))
	  (when (and needsNonSpecificTreeRule *nonspecificrules*)
	    (generate-oprules *nonspecificrules* "XTree"))
	  (generate-listrules (vref *topswitch* nbTreeRules))
       )
       (generate-tops)
       (ifn (eq (car (channel *target-channel*)) 0)
	  (close *target-channel*)
	  ;(print "!! Already closed !!")
	)
       (print "target file " target-filename " created!")
       (setq target-filename (concat target-rootname ".h"))
       (setq *target-channel* (openo target-filename))
       (generate-doth)
       (ifn (eq (car (channel *target-channel*)) 0)
	  (close *target-channel*)
	  ;(print "!! Already closed !!")
	)
)))

(de generate-header ()
    (tg-print)
    (tg-print "/****** GENERATED FILE : DO NOT EDIT !!!! ******/")
    (tg-print "#include <stdio.h>")
    (tg-print "#include <string.h>")
    (tg-print "#include <stdlib.h>")
    (tg-print "#include ""../front/cvtp.h""")
    (tg-print "#include ""../front/treeBuilder.h""")
    (tg-print "#include """ *source-lang-filename* """")
    (tg-print "#include """ *target-lang-filename* """")
    (tg-print)
    (tg-print "#define new(TYPE) (TYPE*)malloc(sizeof(TYPE))")
    (tg-print)
    (tg-print "/* TYPES: */")
    (tg-print)
    (tg-print "/* Type for ""ttml function for translation of trees with a fixed root operator"". */")
    (tg-print "typedef void (TTMLOperatorTreeTranslator)(Tree*, int, short) ;")
    (tg-print)
    (tg-print "/* Used to cut a ListTree in two ListTree's */")
    (tg-print "typedef struct _Cutter{")
    (tg-print "  ListTree **cut ;")
    (tg-print "  ListTree *left, *right ;")
    (tg-print "}Cutter ;")
    (tg-print)
    (tg-print "/* GLOBAL VARIABLES: */")
    (tg-print "static TreeBuilder *targetBuilder = NULL ;")
    (tg-print "typedef struct TargetBuilderStack_ { ")
    (tg-print "    TreeBuilder* top; ")
    (tg-print "    struct TargetBuilderStack_* next;")
    (tg-print "} TargetBuilderStack;")
    (tg-print "static TargetBuilderStack* stack = NULL ;")
    (tg-print "static FILE *protocolOutputStream = NULL ;")
    (tg-prin "static const char *(contextNames[]) = {")
    (print-known-contexts)
    (tg-print "} ;")
    (tg-print)
    (tg-print "void sendListTreeProtocol(ListTree *listTree, FILE *protocolOutputStream) ;")
    (tg-print)
    (tg-print "void sendTreeProtocol(Tree *tree, FILE *protocolOutputStream) {")
    (tg-print "  if ((tree == NULL) || (tree->oper == NULL)) {")
    (tg-print "    fprintf(stdout, ""incomplete tree\n"") ;")
    (tg-print "  } else {")
    (tg-print "    if (tree->annotations != NULL) {")
    (tg-print "      KeyListTree *tlAnnotations = tree->annotations ;")
    (tg-print "      while (tlAnnotations != NULL) {")
    (tg-print "	fprintf(protocolOutputStream, ""%d\n"", ilAnnotationCode) ;")
    (tg-print "	fprintf(protocolOutputStream, ""%s\n"", tlAnnotations->key) ;")
    (tg-print "	sendTreeProtocol(tlAnnotations->tree, protocolOutputStream) ;")
    (tg-print "	tlAnnotations = tlAnnotations->next ;")
    (tg-print "      }")
    (tg-print "    }")
    (tg-print "    fprintf(protocolOutputStream, ""%d\n"", tree->oper->rank) ;")
    (tg-print "    if (tree->oper->arity == 0) {")
    (tg-print "        if (tree->contents.value)")
    (tg-print "	           fprintf(protocolOutputStream, ""%s\n"", tree->contents.value) ;")
    (tg-print "    } else {")
    (tg-print "      sendListTreeProtocol(tree->contents.sons, protocolOutputStream) ;")
    (tg-print "      if (tree->oper->arity == -1)")
    (tg-print "        fprintf(protocolOutputStream, ""%d\n"", ilEndOfListCode) ;")
    (tg-print "    }")
    (tg-print "  }")
    (tg-print "}")
    (tg-print)
    (tg-print "void sendListTreeProtocol(ListTree *listTree, FILE *protocolOutputStream) {")
    (tg-print "    while (listTree != NULL) {")
    (tg-print "      sendTreeProtocol(listTree->tree, protocolOutputStream) ;")
    (tg-print "      listTree = listTree->next ;")
    (tg-print "    }")
    (tg-print "}")
    (tg-print)
    (tg-print "void sendOp(int operRk) {")
    (tg-print "  if (stack->top)")
    (tg-print "    startTree(stack->top, operRk) ;")
    (tg-print "  else if (protocolOutputStream)")
    (tg-print "    fprintf(protocolOutputStream, ""%d\n"", operRk) ;")
;    (tg-print "    fprintf(protocolOutputStream, ""%s\n"", ilOperators[operRk].name) ;")
    (tg-print "  else")
    (tg-print "    printf(""%d\n"", operRk) ;")
    (tg-print "}")
    (tg-print)
    (tg-print "void sendValue(const char *value) {")
    (tg-print "  if (stack->top)")
    (tg-print "    putValue(stack->top, strdup(value)) ;")
    (tg-print "  else if (protocolOutputStream)")
    (tg-print "    fprintf(protocolOutputStream, ""%s\n"", value) ;")
    (tg-print "  else")
    (tg-print "    printf(""%s\n"", value) ;")
    (tg-print "}")
    (tg-print)
    (tg-print "void endList() {")
    (tg-print "  if (stack->top)")
    (tg-print "    terminateListTree(stack->top) ;")
    (tg-print "  else if (protocolOutputStream)")
    (tg-print "    fprintf(protocolOutputStream, ""%d\n"", ilEndOfListCode) ;")
;    (tg-print "    fprintf(protocolOutputStream, ""endOfList\n"") ;")
    (tg-print "  else")
    (tg-print "    printf(""%d\n"", ilEndOfListCode) ;")
    (tg-print "}")
    (tg-print)
    (tg-print "void sendAnnotation(char *name) {")
    (tg-print "    if (stack->top) {")
    (tg-print "      startAnnotation(stack->top, name) ;")
    (tg-print "  } else if (protocolOutputStream) {")
    (tg-print "    fprintf(protocolOutputStream, ""%d\n"", ilAnnotationCode) ;")
;    (tg-print "      fprintf(protocolOutputStream, ""annotation\n"") ;")
    (tg-print "      fprintf(protocolOutputStream, ""%s\n"", name) ;")
    (tg-print "  } else {")
    (tg-print "      printf(""%d\n"", ilAnnotationCode) ;")
    (tg-print "      printf(""%s\n"", name) ;")
    (tg-print "  }")
    (tg-print "}")
    (tg-print)
    (tg-print "void acceptAnnotations() {")
    (tg-print "    if (stack->top) stack->top->acceptAnnotations = 1 ;")
    (tg-print "}")
    (tg-print)
    (tg-print "void sendTree(Tree *tree) {")
    (tg-print "  if (stack->top)")
    (tg-print "    putTree(stack->top, tree) ;")
    (tg-print "  else")
    (tg-print "    sendTreeProtocol(tree,")
    (tg-print "		     (protocolOutputStream)?protocolOutputStream:stdout) ;")
    (tg-print "}")
    (tg-print)
    (tg-print "void sendListTree(ListTree *listTree) {")
    (tg-print "  if (stack->top)")
    (tg-print "    putListTree(stack->top, listTree) ;")
    (tg-print "  else")
    (tg-print "    sendListTreeProtocol(listTree,")
    (tg-print "	                        (protocolOutputStream)?protocolOutputStream:stdout) ;")
    (tg-print "}")
    (tg-print)
    (tg-print "Tree *sendDummyOp(int arity) {")
    (tg-print "    if (stack->top)")
    (tg-print "	return startDummyTree(stack->top, arity) ;")
    (tg-print "    else {")
    (tg-print "	printf(""Cannot start a dummy tree with no targetBuilder\n"") ;")
    (tg-print "	return NULL ;")
    (tg-print "    }")
    (tg-print "}")
    (tg-print)
    (tg-print "void cutAt(Cutter *cutter, ListTree *listTree, int cutPos) {")
    (tg-print "  /* only implemented case: cutPos < 0 */")
    (tg-print "  int i = listTreeLength(listTree) + cutPos ;")
    (tg-print "  if (i==0) {")
    (tg-print "    cutter->left = NULL ;")
    (tg-print "    cutter->right = listTree ;")
    (tg-print "    cutter->cut = NULL ;")
    (tg-print "  } else {")
    (tg-print "    cutter->left = listTree ;")
    (tg-print "    while ((--i)>0) listTree = listTree->next ;")
    (tg-print "    cutter->right = listTree->next ;")
    (tg-print "    listTree->next = NULL ;")
    (tg-print "    cutter->cut = &(listTree->next) ;")
    (tg-print "  }")
    (tg-print "}")
    (tg-print)
    (tg-print "void undoCut(Cutter *cutter) {")
    (tg-print "  if (cutter->cut != NULL) *(cutter->cut)=cutter->right ;")
    (tg-print "}")
    (tg-print)
    (tg-print "void redoCut(Cutter *cutter) {")
    (tg-print "  if (cutter->cut != NULL) *(cutter->cut)=NULL ;")
    (tg-print "}")
    (tg-print)
    (tg-print "/*Forward declarations: */")
    (tg-print "void " *translator-name* "TTList(ListTree *listTree, int context, short resultKind) ;")
    (tg-print "void " *translator-name* "TT(Tree *fTree, int context, short resultKind) ;")
    (tg-print)
    (tg-print "void ttmlNoRule(Tree *fTree, int context, short resultKind) {")
    (tg-print "      char *message = (char*)malloc(200) ;")
    (tg-print "      sprintf(message, ""Unexpected source operator: %s (%s)"",")
    (tg-print "		   fTree->oper->name, contextNames[context]) ;")
    (tg-print "      sendOp(ilParsingErrorCode) ;")
    (tg-print "      sendValue(message) ;")
    (tg-print "}")
    (tg-print)
)

(de print-known-contexts ()
    (let ((orderContexts (list "TOP"))
	  (contexts *contexts*)
	  context rank name inOrderContext
	 )
       (while (nextl contexts context)
	 (setq name (car context))
	 (unless name (setq name "TOP"))
	 (setq rank (cdr context))
	 (setq inOrderContext orderContexts)
	 (until (eq rank 0)
	    (unless (cdr inOrderContext)
	       (rplacd inOrderContext (list ())))
	    (setq inOrderContext (cdr inOrderContext))
	    (decr rank))
	 (unless (car inOrderContext)
	    (rplaca inOrderContext name)))
       (while (nextl orderContexts context)
	  (tg-prin """" context """")
	  (when orderContexts (tg-prin ", ")))
))

(de generate-catchall (ttmlrule)
    (with ((outchan *debug-channel*) (rmargin 150)) ;;Debug
	  (print)                                    ;;Debug
	  (print "Catchall rule:")                   ;;Debug
	  (display-rule (#:ttmlrule:tree ttmlrule))  ;;Debug
	  (#:ttmlrule:display ttmlrule))             ;;Debug
    (tg-print "void action" (#:ttmlrule:catchallRank ttmlrule) "(Tree *fTree, short resultKind) {")
    (generate-rule-comment (#:ttmlrule:tree ttmlrule))
    (generate-rule-action-preamble ttmlrule 1)
    (generate-rule-action (tgo (#:ttmlrule:tree ttmlrule) 2) 
			ttmlrule 1 () () () ())
    (generate-rule-action-termination ttmlrule)
    (tg-print "}")
)

(de generate-oprules (oprules i)
  (when oprules
   (tg-print "void " *translator-name* "TT" i "(Tree *fTree, int context, short resultKind) {")
   (while oprules
     (generate-rule (nextl oprules) 1))
   (tg-print)
   (tg-print "    ttmlNoRule(fTree, context, resultKind) ;")
   (tg-print "}")
   (tg-print)
))

(de generate-listrules (listrules)
   (tg-print "void " *translator-name* "TTList(ListTree *listTree, int context, short resultKind) {")
   (while listrules
       (generate-rule (nextl listrules) -1))
   (tg-print " {")
   (tg-print "    char *message = (char*)malloc(1000) ;")
   (tg-print "    int len = 0 ;")
   (tg-print "    message[0] = '\0' ;")
   (tg-print "    message = strcat(message, ""Unexpected source list: ("") ;")
   (tg-print "    while (listTree != NULL) {")
   (tg-print "      message = strcat(message, listTree->tree->oper->name) ;")
   (tg-print "      listTree = listTree->next ;")
   (tg-print "      if (listTree) {")
   (tg-print "        if (len>5) {")
   (tg-print "          message = strcat(message, "" ..."") ;")
   (tg-print "          listTree=NULL ;")
   (tg-print "        } else message = strcat(message, "" "") ;")
   (tg-print "        len++ ;")
   (tg-print "      }")
   (tg-print "    }")
   (tg-print "    message = strcat(message, "") ("") ;")
   (tg-print "    message = strcat(message, contextNames[context]) ;")
   (tg-print "    message = strcat(message, "")"") ;")
   (tg-print "    sendOp(ilParsingErrorCode) ;")
   (tg-print "    sendValue(message) ;")
   (tg-print "  }")
   (tg-print "}")
   (tg-print)
)

(de generate-tops ()
    (tg-print)
    (tg-print "static TTMLOperatorTreeTranslator *(" *translator-name* "OperTreeTrans[]) = {")
    (let ((i 0)
	  (nbTreeRules (sub1 (vlength *topswitch*)))
	  space
	  )
       (while (lt i nbTreeRules)
	  (setq space (if (gt i 99) "" (if (gt i 9) " " "  ")))
	  (tg-prin "  /* " space i "...*/ ")
	  (repeat 5
		  (if (ge i nbTreeRules)
		     (tg-prin "NULL,")
		     (if (vref *topswitch* i)
			 (if (vref *topswitchspecific* i)
			     (tg-prin "&" *translator-name* "TT" i ",")
			     (tg-prin "&" *translator-name* "TTXTree,"))
			(tg-prin "&ttmlNoRule,")))
		  (incr i)
	  )
	  (tg-print)
    ))
    (tg-print "  /* end...*/ NULL")
    (tg-print "} ;")
    (tg-print)
    (tg-print "void " *translator-name* "TT(Tree *fTree, int context, short resultKind) {")
    (tg-print "  (*(" *translator-name* "OperTreeTrans[fTree->oper->rank]))(fTree, context, resultKind) ;")
    (tg-print "}")
    (tg-print)
    (tg-print "void " *translator-name* "Protocol(Tree *fTree, FILE *outputStream) {")
    (tg-print "  TreeBuilder *previousTargetBuilder = targetBuilder ;")
    (tg-print "  FILE *previousProtocolOutputStream = protocolOutputStream ;")
    (tg-print "  TargetBuilderStack *newStack = new(TargetBuilderStack);")
    (tg-print "  newStack->top = NULL ;")
    (tg-print "  newStack->next = stack;")
    (tg-print "  stack = newStack;")
    (tg-print "  protocolOutputStream = outputStream ;")
    (tg-print "  " *translator-name* "TT(fTree, 0, 1) ;")
    (tg-print "  stack = stack->next;")
    (tg-print "  free(newStack);")
    (tg-print "  protocolOutputStream = previousProtocolOutputStream ;")
    (tg-print "  targetBuilder = previousTargetBuilder ;")
    (tg-print "}")
    (tg-print)
    (tg-print "Tree *" *translator-name* "Tree(Tree *fTree) {")
    (tg-print "  Tree *returnTree ;")
    (tg-print "  TreeBuilder *previousTargetBuilder = targetBuilder ;")
    (tg-print "  FILE *previousProtocolOutputStream = protocolOutputStream ;")
    (tg-print "  TargetBuilderStack *newStack = new(TargetBuilderStack);")
    (tg-print "  newStack->top = newTreeBuilder(ilOperators) ;")
    (tg-print "  newStack->next = stack;")
    (tg-print "  stack = newStack;")
    (tg-print "  protocolOutputStream = NULL ;")
    (tg-print "  " *translator-name* "TT(fTree, 0, 1) ;")
    (tg-print "  returnTree = getTreeBuilt(stack->top) ;")
    (tg-print "  stack = stack->next;")
    (tg-print "  deleteTreeBuilder(newStack->top);")
    (tg-print "  free(newStack);")
    (tg-print "  protocolOutputStream = previousProtocolOutputStream ;")
    (tg-print "  targetBuilder = previousTargetBuilder ;")
    (tg-print "  return returnTree ;")
    (tg-print "}")
)

(de generate-doth ()
    (tg-print "/****** GENERATED FILE : DO NOT EDIT !!!! ******/")
    (tg-print "#ifndef XX" *translator-name* "_LOADED")
    (tg-print "#define XX" *translator-name* "_LOADED")
    (tg-print)
    (tg-print "#include ""../front/cvtp.h""")
    (tg-print)
    (tg-print "/******************************* Exported functions: */")
    (tg-print "void " *translator-name* "Protocol(Tree *fTree, FILE *outputStream) ;")
    (tg-print "Tree *" *translator-name* "Tree(Tree *fTree) ;")
    (tg-print)
    (tg-print "#endif")
)

(de generate-rule (ttmlrule ruleSourceKind)
        (tg-prin "  if (")
	(when (#:ttmlrule:resultKind ttmlrule)
	  (tg-prin "(resultKind == " (#:ttmlrule:resultKind ttmlrule) ")")
	  (tg-prin " && "))
  (if (eq (#:ttmlrule:sourceContext ttmlrule) 0)
		(tg-prin "!context")
		(tg-prin "(context == " (#:ttmlrule:sourceContext ttmlrule) ")")
  )
	(generate-rule-test (tgo (#:ttmlrule:tree ttmlrule) 1) () t t '(1 . 0))
	(tg-print ") {")
        (generate-rule-comment (#:ttmlrule:tree ttmlrule))
        (with ((outchan *debug-channel*) (rmargin 150)) ;;Debug
	   (unless (and (eq ruleSourceKind 1) (#:ttmlrule:catchallRank ttmlrule)) ;;Debug
	     (print)                                    ;;Debug
             (display-rule (#:ttmlrule:tree ttmlrule))  ;;Debug
             (#:ttmlrule:display ttmlrule))             ;;Debug
	   )                                            ;;Debug
	(if (and (eq ruleSourceKind 1) (#:ttmlrule:catchallRank ttmlrule))
	   (tg-print "    action" (#:ttmlrule:catchallRank ttmlrule) "(fTree, resultKind) ;")
	   (generate-rule-action-preamble ttmlrule ruleSourceKind)
	   (setq *ruleUserCallRank* 0)
	   (generate-rule-action (tgo (#:ttmlrule:tree ttmlrule) 2) 
			       ttmlrule ruleSourceKind () () () ())
	   (generate-rule-action-termination ttmlrule)
	)
	(tg-prin "  } else")
)

;;;When <tested-top> is true, this means that the next, arriving, tree operator
;;; has already been tested (by the coarse-grain rule selection mechanism),
;;; and therefore need not be tested again!
;;;When <check-arity> is true, it means that if we arrive on a list
;;; i.e. a "sons", "concat", or "star" operator, we must generate the test
;;; that matches the arities.
(de generate-rule-test (pattern rootExpr tested-top check-arity interval)
   (selectq (tgo pattern oper)
      ((tree atom) (let ((sOp (sourceOper (tgo pattern 1))))
		    (unless rootExpr (setq rootExpr "fTree"))
		    (unless tested-top
		      (generate-and)
		      (tg-prin "(" rootExpr "->oper->rank == " (#:oper:rank sOp) ")"))
		    (if (eq (tgo pattern oper) 'tree)
		      (generate-rule-test
		        (tgo pattern 2) (catenate rootExpr "->contents.sons")
		        () (eq (#:oper:arity sOp) -1) '(1 . 0))
		      (generate-rule-test
		        (tgo pattern 2) (catenate rootExpr "->contents.value")
		        () () ()))))
      (annot     (unless rootExpr (setq rootExpr "fTree"))
		 (generate-rule-test (tgo pattern 1) rootExpr tested-top () ())
		 (generate-and)
		 (tg-prin "(getAnnotationTree(" rootExpr
			  ", """ (tgo pattern 2 atval) """))")
		 (generate-rule-test (tgo pattern 3)
		    (catenate "getAnnotationTree(" rootExpr
			      ", """ (tgo pattern 2 atval) """)")
		    () () ()))
      (sons      (unless rootExpr (setq rootExpr "listTree"))
		 (when check-arity
		   (generate-length-test pattern rootExpr))
                 (let ((sons (tgo pattern sons))
		       (rank (car interval))
		       son
		       )
		    (while (nextl sons son)
		      (generate-rule-test son (rank-path rootExpr rank) () () ())
		      (incr rank))
		 ))
      (concat    (unless rootExpr (setq rootExpr "listTree"))
		 (when check-arity
		   (generate-length-test pattern rootExpr))
                 (let ((sons (tgo pattern sons))
		       intervals son-interval son
		       )
		   (setq intervals (check-offsets sons interval))
		   (while (nextl sons son)
		      (nextl intervals son-interval)
		      (generate-rule-test son rootExpr () () son-interval))))
      (star      (unless rootExpr (setq rootExpr "listTree"))
		 (when check-arity
		   (generate-length-test pattern rootExpr))
		 (let ((details-in-star (details-in-star pattern))
		      )
		    (when details-in-star
		       (incr *matchStarTestsNum*)
		       (generate-and)
		       (tg-prin "(matchStar" *matchStarTestsNum* "("
				(sublist-path rootExpr (car interval)) "))"))))
      ((context assign)
                 (generate-rule-test (tgo pattern 2) rootExpr
				     tested-top check-arity interval))
      (value     (unless rootExpr (setq rootExpr "val"))
		 (generate-and)
		 (tg-prin "(strcmp(" rootExpr "," (tgo pattern atval) ") == 0)"))
      (variable  )
      (t         (print "###> TTML compiler error: generate-rule-test unexpected operator "
			(tgo pattern oper)))
))

(de generate-length-test (pattern rootExpr)
    (let ((pattern-arity (pattern-arity pattern))
	  )
       (unless (equal pattern-arity '(0 . 1))  ;; "zero and more"
	 (generate-and)
	 (if (eq (car pattern-arity) 0)
	    (if (eq (cdr pattern-arity) 0)
	       (tg-prin "(listTreeLength(" rootExpr ") == 0)") ;
	       (tg-prin "(listTreeLength(" rootExpr ")%" (cdr pattern-arity) " == 0)"))
	    (if (eq (cdr pattern-arity) 0)
	       (tg-prin "(listTreeLength(" rootExpr ") == " (car pattern-arity) ")")
	       (if (eq (cdr pattern-arity) 1)
		  (tg-prin "(listTreeLength(" rootExpr ") >= " (car pattern-arity) ")")
		  (tg-prin "(checkLength(listTreeLength(" rootExpr "), "
			   (car pattern-arity) ", " (cdr pattern-arity) "))"))))
)))

(de pattern-arity (pattern)
   (selectq (tgo pattern oper)
      ((tree atom value)  '(1 . 0))
      (sons         (cons (length (tgo pattern sons)) 0))
      (concat       (let ((res (cons 0 0))
			  (sons (tgo pattern sons))
			  son son-arity)
		      (while (nextl sons son)
			 (setq son-arity (pattern-arity son))
			 (rplac res
				(add (car res) (car son-arity))
				(add-period (cdr res) (cdr son-arity))))
		      res))
      (star         (cons 0 (length (tgo pattern sons))))
      (assign       (pattern-arity (tgo pattern 2)))
      (variable     '(0 . 1))
))
      
(de add-period (p1 p2)
    (if (eq p1 0) p2 
      (if (eq p2 0) p1
	(print "###> TTML file error: periodic pattern with 2 periods")
	p1)))

(de rank-path (rootExpr rank)
   (if (le rank 0)
      (catenate "tailSon(" rootExpr "," rank ")")
      (catenate (sublist-path rootExpr rank) "->tree")
))

(de sublist-path (rootExpr rank)
    (repeat (sub1 rank)
       (setq rootExpr (catenate rootExpr "->next")))
    rootExpr)

(de generate-and ()
    (tg-print " &&")
    (tg-prin "      "))

(de generate-rule-comment (rule)
   (tg-prin "    /* RULE ")
   (with ((outchan *target-channel*) (rmargin 150))
      (display-rule rule)
   )
   (tg-print "  */")
)

(de display-rule (tree)
    (selectq (tgo tree oper)
       (rule    (display-rule (tgo tree 1))
	        (print " -> ")
		(prin "              ")
	        (display-rule (tgo tree 2)))
       (annot   (display-rule (tgo tree 1))
		(prin "^{" (tgo tree 2 atval) ":")
		(display-rule (tgo tree 3))
		(prin "}"))
       ((tree atom)
	        (prin (tgo tree 1 atval))
		(when (memq (tgo tree 2 oper) '(assign variable context))
		   (prin " "))
	        (display-rule (tgo tree 2)))
       (userCall (prin "!!")
	        (prin (tgo tree 1 atval))
	        (display-rule (tgo tree 2))
	        (display-rule (tgo tree 3)))
       (context (prin (tgo tree 1 atval) "::")
	        (display-rule (tgo tree 2)))
       (assign  (prin (tgo tree 1 atval) ":=")
	        (display-rule (tgo tree 2)))
       (variable (prin (tgo tree atval)))
       (value   (prin ":")
	        (prin (tgo tree atval)))
       (concat  (prin"[")
		(let ((sons (tgo tree sons))
		      son)
		   (while (nextl sons son)
		      (display-rule son)
		      (when sons (prin ","))))
		(prin"]"))
       ((args sons argSigs)
	        (prin"(")
		(let ((sons (tgo tree sons))
		      son)
		   (while (nextl sons son)
		      (display-rule son)
		      (when sons (prin ","))))
		(prin")"))
       (treeArg (prin "1"))
       (listArg (prin "*"))
       (valueArg (prin ":"))
       (star    (prin"(")
		(let ((sons (tgo tree sons))
		      son)
		   (while (nextl sons son)
		      (display-rule son)
		      (when sons (prin ","))))
		(prin")*"))
))

(de generate-rule-action-preamble (ttmlrule ruleSourceKind)
    (when (#:ttmlrule:hasStar ttmlrule)
      (tg-print "    ListTree *listStars ;")
      (tg-print "    int listStarsLength ;"))
    (let ((userCallsNumber (#:ttmlrule:userCallsRank ttmlrule))
	  (userCalls (#:ttmlrule:userCalls ttmlrule))
	  (i 1)
	  userCall
	  treeRanks listRanks rank
         )
      (while (nextl userCalls userCall)
        (setq treeRanks (#:userCall:treeRanks userCall))
        (setq listRanks (#:userCall:listRanks userCall))
        (when (or treeRanks listRanks)
          (tg-print "    Tree *userCallTree" i " ;"))
        (selectq (#:userCall:resultKind userCall)
          (1   (tg-print "    Tree *userResTree" i " ;"))
          (-1  (tg-print "    ListTree *userResListTree" i " ;"))
          (2   (tg-print "    AtomValue userResValue" i " ;")))
        (when treeRanks
          (tg-prin "    Tree")
          (while (nextl treeRanks rank)
            (tg-prin " *arg" rank "Tree" i)
            (when treeRanks (tg-prin ","))
          )
          (tg-print " ;"))
        (when listRanks
          (tg-prin "    ListTree")
          (while (nextl listRanks rank)
            (tg-prin " *arg" rank "List" i)
            (when listRanks (tg-prin ","))
          )
        (tg-print " ;"))
        (incr i)
      )
    )
    (let ((annotCutters (#:ttmlrule:annotCutters ttmlrule))
	  annotCutter)
      (while annotCutters
	 (setq annotCutter (cdr (nextl annotCutters)))
	 (tg-print "    KeyListTree *annotCutter"
		   (#:ttmlAnnotCutter:rank annotCutter)
		   " ;")
	 (tg-print "    char *annotKey"
		   (#:ttmlAnnotCutter:rank annotCutter)
		   " ;")
         (tg-print "    int annotOnce"
		   (#:ttmlAnnotCutter:rank annotCutter)
		   " = 0 ;")))
    (let ((cutters (#:ttmlrule:cutters ttmlrule))
	  cutter
	 )
       (while cutters
	  (setq cutter (cdr (nextl cutters)))
	  (tg-print "    Cutter *cutter"
		    (#:ttmlcutter:rank cutter)
		    " ;"))
       (setq cutters (#:ttmlrule:cutters ttmlrule))
       (while cutters
	  (setq cutter (cdr (nextl cutters)))
	  (tg-print "    cutter"
		    (#:ttmlcutter:rank cutter)
		    " = new(Cutter) ;"))
    )
    (let ((annotCutters (#:ttmlrule:annotCutters ttmlrule))
	  annotCutter rootExpr path)
      (while annotCutters
	(setq annotCutter (cdr (nextl annotCutters)))
	(setq annotpath (#:ttmlAnnotCutter:annotPath annotCutter))
	(setq rootExpr 
	      (cassq ruleSourceKind '((1 . "fTree") (-1 . "listTree") (-2 . "listStars"))))
	(setq path (generate-rhs-path ruleSourceKind rootExpr (cdr annotpath)))
	(tg-print "    annotCutter" (#:ttmlAnnotCutter:rank annotCutter)
		  " = getAnnotationPlace(" path ", """
		   (car annotpath) """) ;")
	(tg-print "    annotKey" (#:ttmlAnnotCutter:rank annotCutter)
		  " = annotCutter" (#:ttmlAnnotCutter:rank annotCutter) "->key ;")
	(tg-print "    annotCutter" (#:ttmlAnnotCutter:rank annotCutter)
		  "->key = """" ;")
      )
    )
)

(de generate-rule-action-termination (ttmlrule)
    (checkCutterOff ttmlrule)
    (let ((cutters (#:ttmlrule:cutters ttmlrule))
	  cutter
	  )
      (while cutters
	(setq cutter (cdr (nextl cutters)))
	(tg-print "    free(cutter"
		  (#:ttmlcutter:rank cutter)
		  ") ;")
       )
    )
    (let ((annotCutters (#:ttmlrule:annotCutters ttmlrule))
	  annotCutter)
      (while annotCutters
	(setq annotCutter (cdr (nextl annotCutters)))
	(tg-print "    annotCutter" (#:ttmlAnnotCutter:rank annotCutter)
		  "->key = annotKey" (#:ttmlAnnotCutter:rank annotCutter) " ;")
      )
    )
)

(de generate-rule-action (rhs ttmlrule ruleSourceKind context inTmpRebuild expectedKind inStar)
  (if (and context (not inTmpRebuild)
	   (memq (tgo rhs oper) '(tree atom sons concat star annot)))
   (progn
        ;Ce code n'a pas ete teste depuis le passage a une stack de treebuilder.
        ;(tg-print "    tmpTargetBuilder = targetBuilder ;")
        ;(tg-print "    targetBuilder = tmpSourceBuilder ;")
        (tg-print "    TargetBuilderStack *newStack = new(TargetBuilderStack);")
        (tg-print "    newStack->top = newTreeBuilder(" (#:language:name *source-lang*) "Operators);")
        (tg-print "    newStack->next = stack;")
        (tg-print "    stack = newStack; ")
        (generate-rule-action rhs ttmlrule ruleSourceKind context t () inStar)
        (if (memq (tgo rhs oper) '(tree atom))
        (tg-print "    " *translator-name* "TT("
		   "getTreeBuilt(stack->top), context, "
		   (if expectedKind (string expectedKind) "resultKind")
		   ") ;")
        (tg-print "    " *translator-name* "TTList("
		   "getListTreeBuilt(stack->top), context, "
		   (if expectedKind (string expectedKind) "resultKind")
		   ") ;"))
        (tg-print "    resetTreeBuilder(stack->top) ;")
        (tg-print "    stack = stack->next;")
        (tg-print "    deleteTreeBuilder(newStack->top);")
        (tg-print "    free(newStack);")
        ;(tg-print "    targetBuilder = tmpSourceBuilder ;")
   )
   (selectq (tgo rhs oper)
      (tree
       (let ((oper (if inTmpRebuild (sourceOper (tgo rhs 1)) (targetOper (tgo rhs 1))))
	     )
	  (tg-print "    sendOp(" (#:oper:rank oper) ") ;")
	  (generate-rule-action (tgo rhs 2) ttmlrule ruleSourceKind context inTmpRebuild -1 inStar)
	  (when (eq (#:oper:arity oper) -1)
	    (tg-print "    endList() ;"))
      ))
      (atom
       (let ((oper (if inTmpRebuild (sourceOper (tgo rhs 1)) (targetOper (tgo rhs 1))))
	     )
	    (tg-print "    sendOp(" (#:oper:rank oper) ") ;")
	    (when (neq (tgo rhs 2 oper) 'userCall) (tg-prin "    sendValue("))
	    (generate-rule-action (tgo rhs 2) ttmlrule ruleSourceKind
				  context inTmpRebuild 2 inStar)
	    (when (neq (tgo rhs 2 oper) 'userCall) (tg-print ") ;"))
      ))
      (annot
       (let ((annotCutter ())
             (ttmlvar ()))
         (if inStar
             (progn
               ;;Approximate code; we assume the rhs is always of shape ^{annotName:VAR}
               ;; and not e.g ^{annotName:op(VAR)}
               (setq ttmlvar (cassq (concat (tgo rhs 3 atval)) (#:ttmlrule:variables ttmlrule)))
               (setq annotCutter (#:ttmlvar:annotCutter ttmlvar))
               (tg-print "    if (!annotOnce" (#:ttmlAnnotCutter:rank annotCutter) ") {")))
         (tg-print "    sendAnnotation(""" (tgo rhs 2 atval) """) ;")
         (generate-rule-action (tgo rhs 3) ttmlrule ruleSourceKind
			   context inTmpRebuild 1 inStar)
         (tg-print "    acceptAnnotations() ;")
         (if inStar
           (progn
             (tg-print "    annotOnce" (#:ttmlAnnotCutter:rank annotCutter) " = 1 ;")
             (tg-print "    }")))
         (generate-rule-action (tgo rhs 1) ttmlrule ruleSourceKind
                               context inTmpRebuild 1 inStar)
         ))
      ((sons concat)
       (let ((sons (tgo rhs sons))
	     (expectedKind (if (eq (tgo rhs oper) 'sons) 1 -1))
	     son
	    )
	 (while (nextl sons son)
	   (generate-rule-action son ttmlrule ruleSourceKind
			       context inTmpRebuild expectedKind inStar))
      ))
      (variable
         (let* ((ttmlvar (cassq (concat (tgo rhs atval)) (#:ttmlrule:variables ttmlrule)))
		(varSourceKind (or (#:ttmlvar:sourceKind ttmlvar) ruleSourceKind))
		rootExpr pathFromRoot cutter taillength rootExprSourceKind
	      )
           (if (#:ttmlvar:starpath ttmlvar)
              (progn (setq rootExpr "listStars")
                     (setq rootExprSourceKind -2))
              (setq rootExpr (cassq ruleSourceKind '((1 . "fTree") (-1 . "listTree"))))
              (setq rootExprSourceKind ruleSourceKind))
	   (setq pathFromRoot (#:ttmlvar:path ttmlvar))
	   (when (setq cutter (#:ttmlvar:annotCutter ttmlvar))
	      (setq pathFromRoot (#:ttmlvar:path ttmlvar))
	      (setq rootExpr (catenate "annotCutter" (#:ttmlAnnotCutter:rank cutter) "->tree"))
	   )
	   (ifn (setq cutter (#:ttmlvar:cutter ttmlvar))
	      (checkCutterOff ttmlrule)
	      (setq taillength (cdar pathFromRoot))
	      (setq pathFromRoot (cons (cons (caar pathFromRoot) 0) (cdr pathFromRoot)))
	      (checkCutterOn cutter ttmlrule
			     (generate-rhs-path rootExprSourceKind rootExpr pathFromRoot)
			     taillength)
	      (setq rootExpr (catenate "cutter" (#:ttmlcutter:rank cutter) "->left"))
	      (setq pathFromRoot
		    (remove-tail (#:ttmlvar:path ttmlvar) (#:ttmlcutter:cutPath cutter)))
	   )
	   (if inTmpRebuild
	      ;;If we are building a tmp source tree, we just send the tree
	      ;; to the tmpSourceBuilder:
	    (selectq varSourceKind
	       (1  (tg-print "    sendTree("
			    (generate-rhs-path rootExprSourceKind rootExpr
					       pathFromRoot)
			    ") ;"))
	       (-1 (tg-print "    sendListTree("
			    (generate-rhs-path rootExprSourceKind rootExpr
					       pathFromRoot)
			    ") ;"))
	       (2  (tg-prin (generate-rhs-path rootExprSourceKind rootExpr
					       pathFromRoot)))
	    )
	    (unless context (setq context 0))
	    (selectq varSourceKind
	       (1  (tg-print "    " *translator-name* "TT("
			    (generate-rhs-path rootExprSourceKind rootExpr
					       pathFromRoot)
			    ", " context ", "
			    (if (#:ttmlvar:resultKind ttmlvar)
			        (string (#:ttmlvar:resultKind ttmlvar))
				"resultKind")
			    ") ;"))
	       (-1 (tg-print "    " *translator-name* "TTList("
			    (generate-rhs-path rootExprSourceKind rootExpr
					       pathFromRoot)
			    ", " context ", "
			    (if (#:ttmlvar:resultKind ttmlvar)
			        (string (#:ttmlvar:resultKind ttmlvar))
				"resultKind")
			    ") ;"))
	       (2  (tg-prin (generate-rhs-path rootExprSourceKind rootExpr
					       pathFromRoot)))
	    )
      )))
      (value
        (tg-prin (tgo rhs atval)))
      (context
         (let ((new-context (check-context (concat (tgo rhs 1 atval))))
	      )
	    (when context
	      (print "###> TTML file error: nested contexts are forbidden")
	      (setq new-context context))
	    (generate-rule-action (tgo rhs 2) ttmlrule ruleSourceKind
				new-context inTmpRebuild expectedKind inStar)
      ))
      (star
         (let ((starvar (findStarVar rhs (#:ttmlrule:variables ttmlrule)))
	       (sons (tgo rhs sons))
	       son starpath taillength
	       )
	    (setq starpath (#:ttmlvar:starpath starvar))
	    ;;Get the number of elems that must be skipped at the end:
	    (setq taillength (sub 0 (cdr (car starpath))))
	    ;;Modify the path to designate the sublist till the end:
	    (setq starpath (cons (cons (caar starpath) 0) (cdr starpath)))
            (tg-print "    listStars = "
		      (generate-rhs-path ruleSourceKind
					 (if (eq ruleSourceKind 1) "fTree" "listTree")
					 starpath)
		      " ;")
	    (tg-print "    listStarsLength = listTreeLength(listStars) ;")
	    (tg-print "    while(listStarsLength > " taillength ") {")
	    (while (nextl sons son)
	      (generate-rule-action son ttmlrule ruleSourceKind context inTmpRebuild 1 t)
	    )
	    (tg-print "      listStars = "
		      (sublist-path "listStars" (add1 (#:ttmlvar:starlength starvar)))
		      " ;")
	    (tg-print "      listStarsLength -= " (#:ttmlvar:starlength starvar) " ;")
	    (tg-print "    }")
      ))
      (userCall
         (let ((rank (incr *ruleUserCallRank*))
	       (sons (tgo rhs 3 sons))
	       userCall argSigs son argSig i nonValueNumber argRank
	      )
	   (setq userCall (nth (sub1 rank) (#:ttmlrule:userCalls ttmlrule)))
       ;userCall:#[name rank argSigs retType ? treeRanks listRanks]
	   (setq argSigs (#:userCall:argSigs userCall))
	   (setq nonValueNumber (add (length (#:userCall:treeRanks userCall))
				     (length (#:userCall:listRanks userCall))))
	   (when (gt nonValueNumber 0)
            (tg-print "    TargetBuilderStack *newStack = new(TargetBuilderStack);")
            (tg-print "    newStack->top = newTreeBuilder(" (#:language:name *target-lang*) "Operators) ;")
            (tg-print "    newStack->next = stack;")
            (tg-print "    stack = newStack; ")
	    (tg-print "    userCallTree" rank " = sendDummyOp(" nonValueNumber ") ;")
	    (setq argRank 0)
	    (setq i 0)
	    (while (nextl sons son)
            (when (neq argSig 2)
                (incr argRank))
            (nextl argSigs argSig)
            (when (eq argSig -1)
              (tg-print "    sendDummyOp(-1) ;"))
            (unless (eq argSig 2)
                (incr i)
                (generate-rule-action son ttmlrule ruleSourceKind context inTmpRebuild argSig inStar)
                (when (eq argSig -1) (tg-print "    endList() ;"))
                (tg-print "    arg" argRank
                      (cassq argSig '((1 . "Tree") (-1 . "List")))
                      rank " = "
                      (rank-path (catenate "userCallTree" rank "->contents.sons") i)
                      (if (eq argSig -1) "->contents.sons ;" " ;"))
            )
	    )
        
	    (setq sons (tgo rhs 3 sons))
            (setq i 0)
	    (while (nextl sons son)
	      (nextl argSigs argSig)
	      (unless (eq argSig 2) (incr i))
	      (when (eq argSig -1)
                (tg-print "    freeTreeNode("
                    (rank-path (catenate "userCallTree" rank "->contents.sons") i)
                    ") ;"))
	    )
	    (tg-print "    freeListTreeNode(userCallTree" rank "->contents.sons) ;")
	    (tg-print "    freeTreeNode(userCallTree" rank ") ;")
	   )
       
	   (tg-prin "    userRes"
		    (cassq (#:userCall:resultKind userCall)
			   '((1 . "Tree") (-1 . "ListTree") (2 . "Value")))
		    rank " = " *translator-name* "U" (#:userCall:name userCall) "(")
	   (setq sons (tgo rhs 3 sons))
	   (setq argSigs (#:userCall:argSigs userCall))
	   (setq i 0)
	   (while (nextl sons son)
	     (nextl argSigs argSig)
	     (incr i)
	     (selectq argSig
		(1  (tg-prin "arg" i "Tree" rank))
		(-1 (tg-prin "arg" i "List" rank))
		(2  (tg-prin "(AtomValue)")
            (decr i)
		    (generate-rule-action son ttmlrule ruleSourceKind
					  context inTmpRebuild argSig inStar)))
	     (when sons (tg-print ",") (tg-prin "      "))
	   )
	   (tg-print ") ;")
           (when (gt nonValueNumber 0)
             (tg-print "    stack = stack->next;")
             (tg-print "    deleteTreeBuilder(newStack->top);")
             (tg-print "    free(newStack);")
           )
	   (tg-print "    send"
		    (cassq (#:userCall:resultKind userCall)
			   '((1 . "Tree") (-1 . "ListTree") (2 . "Value")))
		    "(userRes"
		    (cassq (#:userCall:resultKind userCall)
			   '((1 . "Tree") (-1 . "ListTree") (2 . "Value")))
		    rank ") ;")
	   (tg-print "    if (stack == NULL) free"
		     (cassq (#:userCall:resultKind userCall)
			   '((1 . "Tree") (-1 . "ListTree") (2 . "")))
		     "(userRes"
		     (cassq (#:userCall:resultKind userCall)
			   '((1 . "Tree") (-1 . "ListTree") (2 . "Value")))
		     rank ") ;")
      ))
      (t    (print "###> TTML compiler error: generate-rule-action unexpected operator "
		   (tgo rhs oper)))
)))

;;; rootExprSourceKind indicates the sort of C variable that contains the
;;; initial point of the source tree that is being matched.
;;;   -- when it is "1", it means this is a "Tree" rule,
;;;       and the C variable that holds the tree is "Tree *fTree"
;;;   -- when it is "-1", it means this is a "ListTree" rule,
;;;       and the C variable that holds it is "ListTree *listTree"
;;;   -- when it is "-2", it means we are inside a star iteration,
;;;       and the C variable that holds the root star is "ListTree *listStars"
(de generate-rhs-path (rootExprSourceKind rootExpr path)
   (if (null path)
      rootExpr
      (let ((subString (generate-rhs-path rootExprSourceKind rootExpr (cdr path)))
	   )
	(cond
	    ((eq (car path) 'val)
;;	       (catenate "strdup((char *)" subString "->contents.value)")
;;             useless strdup !?
	       (catenate "(char *)" subString "->contents.value")
               )
	    ((and (consp (car path)) (eq (caar path) 'annot))
	       subString
	     )
	    ((consp (car path))
	       (when (or (eq rootExprSourceKind 1) (cdr path))
		  (setq subString (catenate subString "->contents.sons")))
	       (setq subString (sublist-path subString (caar path)))
	       (unless (eq (cdar path) 0)
		   (let ((substring-length (cdar path))
			)
		      (when (gt substring-length 0)
			 (setq substring-length
			       (add1 (sub substring-length (caar path)))))
		      (setq subString
			    (catenate "sublist(" subString ","
				      (string substring-length) ")"))))
	       subString)
	    ((numberp (car path))
	       (when (or (eq rootExprSourceKind 1) (cdr path))
		  (setq subString (catenate subString "->contents.sons")))
	       (rank-path subString (car path)))
))))

(de findStarVar (pattern variables)
   (selectq (tgo pattern oper)
      ((concat sons star)
            (let ((sons (tgo pattern sons))
		  (foundvar ())
		  son
		  )
	      (while (and (null foundvar) (nextl sons son))
		(setq foundvar (findStarVar son variables)))
	      foundvar))
      ((tree atom userCall context assign)
            (findStarVar (tgo pattern 2) variables))
      (userCall
            (findStarVar (tgo pattern 3) variables))
      (variable
            (let ((ttmlvar (cassq (concat (tgo pattern atval)) variables))
		 )
	       (when (#:ttmlvar:starlength ttmlvar)
		  ttmlvar)))
      (annot
            (findStarVar (tgo pattern 1) variables))
      (value)
))

(de checkCutterOn (cutter ttmlrule listExpr cutLength)
    (let ((curCutter (#:ttmlrule:curCutter ttmlrule))
	 )
       (if (eq cutter curCutter)
	  (unless (#:ttmlcutter:on cutter)
	     (tg-print "    redoCut(cutter" (#:ttmlcutter:rank cutter) ") ;")
	     (#:ttmlcutter:on cutter t))
	  (checkCutterOff ttmlrule)
	  (#:ttmlrule:curCutter ttmlrule cutter)
	  (tg-print "    cutAt(cutter" (#:ttmlcutter:rank cutter) ", "
		    listExpr ", " cutLength ") ;")
	  (#:ttmlcutter:on cutter t)
)))

(de checkCutterOff (ttmlrule)
    (let ((curCutter (#:ttmlrule:curCutter ttmlrule))
	 )
       (when (and curCutter (#:ttmlcutter:on curCutter))
	 (tg-print "    undoCut(cutter" (#:ttmlcutter:rank curCutter) ") ;")
	 (#:ttmlcutter:on curCutter ()))
       (#:ttmlrule:curCutter ttmlrule ())
))

(de remove-tail (path tailpath)
    (if (or (null path) (eq path tailpath))
	()
        (cons (car path) (remove-tail (cdr path) tailpath))))
      
