; $Id: language.ll 1015 2006-04-06 08:29:48Z cmassol $
(de #:language:add-oper (lang oper)
   (#:language:oper-list lang (cons oper (#:language:oper-list lang)))
)

(de #:language:build (lang)
    (#:language:nbOpers lang (length (#:language:oper-list lang)))
    (#:language:operators lang (makevector (#:language:nbOpers lang) ()))
    (let ((opers (#:language:oper-list lang))
	  oper
	  )
      (while (setq oper (nextl opers))
	 (vset (#:language:operators lang) (#:oper:rank oper) oper)))
    (#:language:oper-list lang ())
)

(de #:language:name-oper (lang name)
    (let ((i (#:language:nbOpers lang))
          (found ())
          (atomname (concat name))
         )
         (while (and (not found) (ge (decr i) 0))
            (when (equal (#:oper:name (vref (#:language:operators lang) i)) atomname)
                  (setq found (vref (#:language:operators lang) i))
                  ))
         (when (not found)
            (print "###> TTML file error: operator " name " not found in language "(#:language:name lang)))
         found
    ))

(de #:oper:create-from-line (line)
   (tag badline
    (let (pos pos2 len oper)
      (setq len (slen line))
      (setq oper (#:oper:make))
      (setq pos (chrpos 123 line 0))            ;accolade ouvrante
      (when (null pos) (exit badline ()))
      (setq pos (chrpos 34 line pos))           ;double quote
      (when (null pos) (exit badline ()))
      (incr pos)
      (when (ge pos len) (exit badline ()))
      (setq pos2 (chrpos 34 line pos))          ;double quote
      (when (null pos2) (exit badline ()))
      (#:oper:name oper (concat (substring line pos (sub pos2 pos))))
      (setq pos (chrpos 44 line pos2))          ;virgule
      (when (null pos) (exit badline ()))
      (incr pos)
      (when (ge pos len) (exit badline ()))
      (until (number-char (sref line pos))
	(incr pos)
	(when (ge pos len) (exit badline ())))
      (setq pos2 pos)
      (while (number-char (sref line pos2))
	(incr pos2)
	(when (ge pos2 len) (exit badline ())))
      (#:oper:arity oper (stratom (sub pos2 pos) (substring line pos (sub pos2 pos)) ()))
      (setq pos (chrpos 44 line pos2))          ;virgule
      (when (null pos) (exit badline ()))
      (incr pos)
      (when (ge pos len) (exit badline ()))
      (until (number-char (sref line pos))
	(incr pos)
	(when (ge pos len) (exit badline ())))
      (setq pos2 pos)
      (while (number-char (sref line pos2))
	(incr pos2)
	(when (ge pos2 len) (exit badline ())))
      (#:oper:rank oper (stratom (sub pos2 pos) (substring line pos (sub pos2 pos)) ()))
      oper
)))

(de number-char (cn)
   (or (eq cn 45)
       (eq cn 43)
       (and (ge cn 48)
	    (le cn 57))))
