 threads/stencilsize/domainsize/reps/iters:         112           1        1000 1     5120000
 plain time    6.78615379333496       sum    4424014.01497117     
 cmpct time    4.84079384803772       sum    4424014.01497118     
 threads/stencilsize/domainsize/reps/iters:         112           1        1000 1     5120000
 plaind time    9.83615183830261       sum   0.785513851251280     
 cmpctd time    10.2735600471497       sum   0.785513851251279     
 threads/stencilsize/domainsize/reps/iters:         112           1        1000 1     5120000
 plainb time    5.09847688674927       sum   -63607.2114293585     
 dummyb time    0.0                    sum   0.0                   
 cmpctb time    5.36881208419800       sum   -63607.2153858095     
 threads/stencilsize/domainsize/reps/iters:         112           1       10000 1      512000
 plain time    6.76990318298340       sum   -568566.049499806     
 cmpct time    5.68104696273804       sum   -568566.049499806     
 threads/stencilsize/domainsize/reps/iters:         112           1       10000 1      512000
 plaind time    9.43040513992310       sum   -1.00952778730229     
 cmpctd time    11.6421399116516       sum   -1.00952778730229     
 threads/stencilsize/domainsize/reps/iters:         112           1       10000 1      512000
 plainb time    5.18276786804199       sum   -9506.08862385439     
 dummyb time    0.0                    sum   0.0                   
 cmpctb time    5.71342301368713       sum   -9506.08979267813     
 threads/stencilsize/domainsize/reps/iters:         112           1      100000 1       51200
 plain time    6.79026985168457       sum   -50255.7961005642     
 cmpct time    7.16727781295776       sum   -50255.7961005612     
 threads/stencilsize/domainsize/reps/iters:         112           1      100000 1       51200
 plaind time    10.6362600326538       sum  -0.892325924835545     
 cmpctd time    15.3099849224091       sum  -0.892325924835546     
 threads/stencilsize/domainsize/reps/iters:         112           1      100000 1       51200
 plainb time    5.51673984527588       sum   -572.101440506460     
 dummyb time    0.0                    sum   0.0                   
 cmpctb time    7.86774110794067       sum   -572.101444831584     
 threads/stencilsize/domainsize/reps/iters:         112           1     1000000 1        5120
 plain time    6.77338600158691       sum    3151.28471623289     
 cmpct time    7.23311376571655       sum    3151.28471623222     
 threads/stencilsize/domainsize/reps/iters:         112           1     1000000 1        5120
 plaind time    10.9944829940796       sum   0.559532087349154     
 cmpctd time    16.3439860343933       sum   0.559532087349086     
 threads/stencilsize/domainsize/reps/iters:         112           1     1000000 1        5120
 plainb time    5.53825902938843       sum   -206.019238276240     
 dummyb time    0.0                    sum   0.0                   
 cmpctb time    7.71021604537964       sum   -206.019238921413     
 threads/stencilsize/domainsize/reps/iters:         112           1    10000000 1         512
 plain time    9.17351198196411       sum   -359.162075975132     
 cmpct time    15.5529229640961       sum   -359.162075974925     
 threads/stencilsize/domainsize/reps/iters:         112           1    10000000 1         512
 plaind time    19.4069869518280       sum  -0.637943296563012     
 cmpctd time    31.4422562122345       sum  -0.637943296563134     
 threads/stencilsize/domainsize/reps/iters:         112           1    10000000 1         512
 plainb time    9.38216280937195       sum   -2.27185288774152     
 dummyb time    0.0                    sum   0.0                   
 cmpctb time    16.6215419769287       sum   -2.27185289982410     
 threads/stencilsize/domainsize/reps/iters:         112           1        1000 8      640000
 plain time   0.597991943359375       sum    553001.762652944     
 cmpct time   0.613890886306763       sum    553001.762262587     
 threads/stencilsize/domainsize/reps/iters:         112           1        1000 8      640000
 plaind time    1.22897100448608       sum   0.785513867345749     
 cmpctd time    1.33071684837341       sum   0.785513867345749     
 threads/stencilsize/domainsize/reps/iters:         112           1        1000 8      640000
 plainb time   0.640219211578369       sum   -7950.90385331935     
 dummyb time    0.0                    sum   0.0                   
 cmpctb time   0.668563842773438       sum   -7950.90363578184     
 threads/stencilsize/domainsize/reps/iters:         112           1       10000 8       64000
 plain time   0.624136924743652       sum   -71070.7576826324     
 cmpct time   0.710387945175171       sum   -71070.7576901726     
 threads/stencilsize/domainsize/reps/iters:         112           1       10000 8       64000
 plaind time    1.23068499565125       sum   -1.00952780798658     
 cmpctd time    1.44922995567322       sum   -1.00952780798658     
 threads/stencilsize/domainsize/reps/iters:         112           1       10000 8       64000
 plainb time   0.652971029281616       sum   -1188.26120846437     
 dummyb time    0.0                    sum   0.0                   
 cmpctb time   0.714993000030518       sum   -1188.26121264684     
 threads/stencilsize/domainsize/reps/iters:         112           1      100000 8        6400
 plain time   0.632974147796631       sum   -6281.97463952961     
 cmpct time   0.892289876937866       sum   -6281.97463950296     
 threads/stencilsize/domainsize/reps/iters:         112           1      100000 8        6400
 plaind time    1.33125495910645       sum  -0.892325943118434     
 cmpctd time    1.94432783126831       sum  -0.892325943118457     
 threads/stencilsize/domainsize/reps/iters:         112           1      100000 8        6400
 plainb time   0.697859048843384       sum   -71.5126806225398     
 dummyb time    0.0                    sum   0.0                   
 cmpctb time   0.931288957595825       sum   -71.5126804777428     
 threads/stencilsize/domainsize/reps/iters:         112           1     1000000 8         640
 plain time   0.626036882400513       sum    393.910597570054     
 cmpct time   0.898702144622803       sum    393.910597559631     
 threads/stencilsize/domainsize/reps/iters:         112           1     1000000 8         640
 plaind time    1.38109683990479       sum   0.559532098813501     
 cmpctd time    1.98517203330994       sum   0.559532098813437     
 threads/stencilsize/domainsize/reps/iters:         112           1     1000000 8         640
 plainb time   0.696833133697510       sum   -25.7524054277584     
 dummyb time    0.0                    sum   0.0                   
 cmpctb time   0.972905874252319       sum   -25.7524054226204     
 threads/stencilsize/domainsize/reps/iters:         112           1    10000000 8          64
 plain time    1.05681419372559       sum   -44.6560316743516     
 cmpct time    1.94463515281677       sum   -44.6560316747908     
 threads/stencilsize/domainsize/reps/iters:         112           1    10000000 8          64
 plaind time    2.50091886520386       sum  -0.637943309634203     
 cmpctd time    3.98001289367676       sum  -0.637943309634062     
 threads/stencilsize/domainsize/reps/iters:         112           1    10000000 8          64
 plainb time    1.19416904449463       sum  -0.282468394311408     
 dummyb time    0.0                    sum   0.0                   
 cmpctb time    2.12943792343140       sum  -0.282468394152339     
 threads/stencilsize/domainsize/reps/iters:         112           1        1000 64      640000
 plain time   0.596686124801636       sum    553001.762323158     
 cmpct time   0.607202053070068       sum    553001.762316313     
 threads/stencilsize/domainsize/reps/iters:         112           1        1000 64      640000
 plaind time    1.23060178756714       sum   0.785513866865663     
 cmpctd time    1.32771682739258       sum   0.785513866865661     
 threads/stencilsize/domainsize/reps/iters:         112           1        1000 64      640000
 plainb time   0.638888835906982       sum   -7950.90354523249     
 dummyb time    0.0                    sum   0.0                   
 cmpctb time   0.669807910919189       sum   -7950.90411354206     
 threads/stencilsize/domainsize/reps/iters:         112           1       10000 64       64000
 plain time   0.623682022094727       sum   -71070.7576392511     
 cmpct time   0.711515903472900       sum   -71070.7576296125     
 threads/stencilsize/domainsize/reps/iters:         112           1       10000 64       64000
 plaind time    1.23044490814209       sum   -1.00952780736958     
 cmpctd time    1.44626188278198       sum   -1.00952780736957     
 threads/stencilsize/domainsize/reps/iters:         112           1       10000 64       64000
 plainb time   0.659217834472656       sum   -1188.26123516798     
 dummyb time    0.0                    sum   0.0                   
 cmpctb time   0.711609125137329       sum   -1188.26122547635     
 threads/stencilsize/domainsize/reps/iters:         112           1      100000 64        6400
 plain time   0.633702993392944       sum   -6281.97463554223     
 cmpct time   0.899775028228760       sum   -6281.97463569728     
 threads/stencilsize/domainsize/reps/iters:         112           1      100000 64        6400
 plaind time    1.33749103546143       sum  -0.892325942573080     
 cmpctd time    1.91265296936035       sum  -0.892325942573085     
 threads/stencilsize/domainsize/reps/iters:         112           1      100000 64        6400
 plainb time   0.700518131256104       sum   -71.5126804402803     
 dummyb time    0.0                    sum   0.0                   
 cmpctb time   0.995988130569458       sum   -71.5126805728742     
 threads/stencilsize/domainsize/reps/iters:         112           1     1000000 64         640
 plain time   0.628712892532349       sum    393.910597320466     
 cmpct time   0.901942968368530       sum    393.910597335118     
 threads/stencilsize/domainsize/reps/iters:         112           1     1000000 64         640
 plaind time    1.36443495750427       sum   0.559532098471551     
 cmpctd time    2.07593011856079       sum   0.559532098471528     
 threads/stencilsize/domainsize/reps/iters:         112           1     1000000 64         640
 plainb time   0.696372985839844       sum   -25.7524054100411     
 dummyb time    0.0                    sum   0.0                   
 cmpctb time   0.967091083526611       sum   -25.7524054073749     
 threads/stencilsize/domainsize/reps/iters:         112           1    10000000 64          64
 plain time    1.06132984161377       sum   -44.6560316469703     
 cmpct time    1.95487499237061       sum   -44.6560316469921     
 threads/stencilsize/domainsize/reps/iters:         112           1    10000000 64          64
 plaind time    2.49772596359253       sum  -0.637943309244021     
 cmpctd time    4.05394697189331       sum  -0.637943309244092     
 threads/stencilsize/domainsize/reps/iters:         112           1    10000000 64          64
 plainb time    1.19979500770569       sum  -0.282468393671728     
 dummyb time    0.0                    sum   0.0                   
 cmpctb time    2.13486313819885       sum  -0.282468393802745     
 threads/stencilsize/domainsize/reps/iters:         112           2        1000 1     2560000
 plain time    3.72475290298462       sum    11425483.4598393     
 cmpct time    3.77797102928162       sum    11425483.4598393     
 threads/stencilsize/domainsize/reps/iters:         112           2        1000 1     2560000
 plaind time    8.02086591720581       sum    4.05734497757054     
 cmpctd time    8.18051099777222       sum    4.05734497757054     
 threads/stencilsize/domainsize/reps/iters:         112           2        1000 1     2560000
 plainb time    3.55634713172913       sum   -96999.7154082591     
 dummyb time    0.0                    sum   0.0                   
 cmpctb time    5.24614906311035       sum   -96999.7095759138     
 threads/stencilsize/domainsize/reps/iters:         112           2       10000 1      256000
 plain time    3.93428611755371       sum    294217.007823845     
 cmpct time    4.34201693534851       sum    294217.007823851     
 threads/stencilsize/domainsize/reps/iters:         112           2       10000 1      256000
 plaind time    7.55980896949768       sum    1.04480471465615     
 cmpctd time    8.83484888076782       sum    1.04480471465613     
 threads/stencilsize/domainsize/reps/iters:         112           2       10000 1      256000
 plainb time    3.55786204338074       sum    2904.65549126719     
 dummyb time    0.0                    sum   0.0                   
 cmpctb time    4.81037402153015       sum    2904.65549426517     
 threads/stencilsize/domainsize/reps/iters:         112           2      100000 1       25600
 plain time    4.01381111145020       sum    52548.5625753274     
 cmpct time    5.35955095291138       sum    52548.5625753305     
 threads/stencilsize/domainsize/reps/iters:         112           2      100000 1       25600
 plaind time    8.02749395370483       sum    1.86607111442306     
 cmpctd time    11.4011828899384       sum    1.86607111442308     
 threads/stencilsize/domainsize/reps/iters:         112           2      100000 1       25600
 plainb time    3.71655607223511       sum    353.226733983071     
 dummyb time    0.0                    sum   0.0                   
 cmpctb time    5.91474795341492       sum    353.226737765513     
 threads/stencilsize/domainsize/reps/iters:         112           2     1000000 1        2560
 plain time    3.99401998519897       sum    3555.02047663773     
 cmpct time    5.34641695022583       sum    3555.02047663700     
 threads/stencilsize/domainsize/reps/iters:         112           2     1000000 1        2560
 plaind time    8.09617590904236       sum    1.26243624880147     
 cmpctd time    11.6806471347809       sum    1.26243624880157     
 threads/stencilsize/domainsize/reps/iters:         112           2     1000000 1        2560
 plainb time    3.72164392471313       sum   -137.236014390966     
 dummyb time    0.0                    sum   0.0                   
 cmpctb time    5.87706780433655       sum   -137.236014688061     
 threads/stencilsize/domainsize/reps/iters:         112           2    10000000 1         256
 plain time    4.98483610153198       sum    791.541263369435     
 cmpct time    11.6910002231598       sum    791.541263369501     
 threads/stencilsize/domainsize/reps/iters:         112           2    10000000 1         256
 plaind time    11.1641039848328       sum    2.81687282340589     
 cmpctd time    22.7097239494324       sum    2.81687282340605     
 threads/stencilsize/domainsize/reps/iters:         112           2    10000000 1         256
 plainb time    5.17232298851013       sum    2.95644055137622     
 dummyb time    0.0                    sum   0.0                   
 cmpctb time    12.7608430385590       sum    2.95644055252980     
 threads/stencilsize/domainsize/reps/iters:         112           2        1000 8      320000
 plain time   0.465349912643433       sum    1428185.46134149     
 cmpct time   0.475734949111938       sum    1428185.46120417     
 threads/stencilsize/domainsize/reps/iters:         112           2        1000 8      320000
 plaind time    1.00092005729675       sum    4.05734506070187     
 cmpctd time    1.00797295570374       sum    4.05734506070189     
 threads/stencilsize/domainsize/reps/iters:         112           2        1000 8      320000
 plainb time   0.447265148162842       sum   -12124.9638011017     
 dummyb time    0.0                    sum   0.0                   
 cmpctb time   0.654355049133301       sum   -12124.9638818302     
 threads/stencilsize/domainsize/reps/iters:         112           2       10000 8       32000
 plain time   0.467497110366821       sum    36777.1267045734     
 cmpct time   0.535508871078491       sum    36777.1267013848     
 threads/stencilsize/domainsize/reps/iters:         112           2       10000 8       32000
 plaind time   0.953379869461060       sum    1.04480473606326     
 cmpctd time    1.10240197181702       sum    1.04480473606326     
 threads/stencilsize/domainsize/reps/iters:         112           2       10000 8       32000
 plainb time   0.445965051651001       sum    363.081935155953     
 dummyb time    0.0                    sum   0.0                   
 cmpctb time   0.601902961730957       sum    363.081930070266     
 threads/stencilsize/domainsize/reps/iters:         112           2      100000 8        3200
 plain time   0.471442937850952       sum    6568.57045751186     
 cmpct time   0.670968055725098       sum    6568.57045742511     
 threads/stencilsize/domainsize/reps/iters:         112           2      100000 8        3200
 plaind time    1.00447487831116       sum    1.86607115265721     
 cmpctd time    1.39893102645874       sum    1.86607115265710     
 threads/stencilsize/domainsize/reps/iters:         112           2      100000 8        3200
 plainb time   0.474489212036133       sum    44.1533434748092     
 dummyb time    0.0                    sum   0.0                   
 cmpctb time   0.713686943054199       sum    44.1533436539551     
 threads/stencilsize/domainsize/reps/iters:         112           2     1000000 8         320
 plain time   0.469476938247681       sum    444.377568684918     
 cmpct time   0.665812015533447       sum    444.377568689838     
 threads/stencilsize/domainsize/reps/iters:         112           2     1000000 8         320
 plaind time    1.02037191390991       sum    1.26243627466732     
 cmpctd time    1.45856404304504       sum    1.26243627466722     
 threads/stencilsize/domainsize/reps/iters:         112           2     1000000 8         320
 plainb time   0.464386940002441       sum   -17.1545022466695     
 dummyb time    0.0                    sum   0.0                   
 cmpctb time   0.734115839004517       sum   -17.1545022460429     
 threads/stencilsize/domainsize/reps/iters:         112           2    10000000 8          32
 plain time   0.606959819793701       sum    98.5905508394166     
 cmpct time    1.46333289146423       sum    98.5905508392947     
 threads/stencilsize/domainsize/reps/iters:         112           2    10000000 8          32
 plaind time    1.39788198471069       sum    2.81687288112090     
 cmpctd time    2.88856792449951       sum    2.81687288112063     
 threads/stencilsize/domainsize/reps/iters:         112           2    10000000 8          32
 plainb time   0.647842168807983       sum   0.368239933327386     
 dummyb time    0.0                    sum   0.0                   
 cmpctb time    1.60793304443359       sum   0.368239933488239     
 threads/stencilsize/domainsize/reps/iters:         112           2        1000 64      320000
 plain time   0.465905904769897       sum    1428185.46048669     
 cmpct time   0.473947048187256       sum    1428185.46053218     
 threads/stencilsize/domainsize/reps/iters:         112           2        1000 64      320000
 plaind time    1.00017094612122       sum    4.05734505822211     
 cmpctd time   0.980067968368530       sum    4.05734505822211     
 threads/stencilsize/domainsize/reps/iters:         112           2        1000 64      320000
 plainb time   0.444895982742310       sum   -12124.9639229182     
 dummyb time    0.0                    sum   0.0                   
 cmpctb time   0.521996021270752       sum   -12124.9642910251     
 threads/stencilsize/domainsize/reps/iters:         112           2       10000 64       32000
 plain time   0.468035936355591       sum    36777.1266890041     
 cmpct time   0.533379077911377       sum    36777.1266894807     
 threads/stencilsize/domainsize/reps/iters:         112           2       10000 64       32000
 plaind time   0.953874111175537       sum    1.04480473542469     
 cmpctd time    1.06741499900818       sum    1.04480473542469     
 threads/stencilsize/domainsize/reps/iters:         112           2       10000 64       32000
 plainb time   0.448273897171021       sum    363.081939281954     
 dummyb time    0.0                    sum   0.0                   
 cmpctb time   0.525729894638062       sum    363.081931495621     
 threads/stencilsize/domainsize/reps/iters:         112           2      100000 64        3200
 plain time   0.472647905349731       sum    6568.57045356731     
 cmpct time   0.668537139892578       sum    6568.57045372166     
 threads/stencilsize/domainsize/reps/iters:         112           2      100000 64        3200
 plaind time    1.00282502174377       sum    1.86607115151663     
 cmpctd time    1.42373585700989       sum    1.86607115151662     
 threads/stencilsize/domainsize/reps/iters:         112           2      100000 64        3200
 plainb time   0.464880943298340       sum    44.1533437910686     
 dummyb time    0.0                    sum   0.0                   
 cmpctb time   0.663794994354248       sum    44.1533438650596     
 threads/stencilsize/domainsize/reps/iters:         112           2     1000000 64         320
 plain time   0.469774961471558       sum    444.377568406640     
 cmpct time   0.663288116455078       sum    444.377568416060     
 threads/stencilsize/domainsize/reps/iters:         112           2     1000000 64         320
 plaind time    1.01586699485779       sum    1.26243627389602     
 cmpctd time    1.44735312461853       sum    1.26243627389573     
 threads/stencilsize/domainsize/reps/iters:         112           2     1000000 64         320
 plainb time   0.464323043823242       sum   -17.1545022316099     
 dummyb time    0.0                    sum   0.0                   
 cmpctb time   0.709518909454346       sum   -17.1545022322797     
 threads/stencilsize/domainsize/reps/iters:         112           2    10000000 64          32
 plain time   0.608870029449463       sum    98.5905507791660     
 cmpct time    1.46403312683105       sum    98.5905507788707     
 threads/stencilsize/domainsize/reps/iters:         112           2    10000000 64          32
 plaind time    1.39282703399658       sum    2.81687287939994     
 cmpctd time    2.90273308753967       sum    2.81687287940023     
 threads/stencilsize/domainsize/reps/iters:         112           2    10000000 64          32
 plainb time   0.647476911544800       sum   0.368239933129194     
 dummyb time    0.0                    sum   0.0                   
 cmpctb time    1.60292196273804       sum   0.368239933001579     
 threads/stencilsize/domainsize/reps/iters:         112           8        1000 1     2560000
 plain time    17.1277778148651       sum    23764023.6463101     
 cmpct time    13.1771328449249       sum    23764023.6493542     
 threads/stencilsize/domainsize/reps/iters:         112           8        1000 1     2560000
 plaind time    27.9784731864929       sum    8.43892883464096     
 cmpctd time    27.4081690311432       sum    8.43892883464096     
 threads/stencilsize/domainsize/reps/iters:         112           8        1000 1     2560000
 plainb time    13.4768238067627       sum   -165924.036577471     
 dummyb time    0.0                    sum   0.0                   
 cmpctb time    15.4099850654602       sum   -165924.011843545     
 threads/stencilsize/domainsize/reps/iters:         112           8       10000 1      256000
 plain time    17.9181358814240       sum   -22221.7494298606     
 cmpct time    14.3990819454193       sum   -22221.7494186365     
 threads/stencilsize/domainsize/reps/iters:         112           8       10000 1      256000
 plaind time    29.8530330657959       sum  -7.891246207823677E-002
 cmpctd time    28.3397819995880       sum  -7.891246207818348E-002
 threads/stencilsize/domainsize/reps/iters:         112           8       10000 1      256000
 plainb time    15.3085479736328       sum   -180.427403526341     
 dummyb time    0.0                    sum   0.0                   
 cmpctb time    15.6281418800354       sum   -180.425882348052     
 threads/stencilsize/domainsize/reps/iters:         112           8      100000 1       25600
 plain time    17.9887418746948       sum    43692.3312302961     
 cmpct time    17.1533770561218       sum    43692.3312299208     
 threads/stencilsize/domainsize/reps/iters:         112           8      100000 1       25600
 plaind time    30.2793219089508       sum    1.55157426135555     
 cmpctd time    35.6833920478821       sum    1.55157426135545     
 threads/stencilsize/domainsize/reps/iters:         112           8      100000 1       25600
 plainb time    15.5214829444885       sum    241.541191303786     
 dummyb time    0.0                    sum   0.0                   
 cmpctb time    18.9029707908630       sum    241.541192876317     
 threads/stencilsize/domainsize/reps/iters:         112           8     1000000 1        2560
 plain time    18.0015468597412       sum    9043.24256483082     
 cmpct time    16.8752748966217       sum    9043.24256482287     
 threads/stencilsize/domainsize/reps/iters:         112           8     1000000 1        2560
 plaind time    30.4222130775452       sum    3.21137875231545     
 cmpctd time    36.4051170349121       sum    3.21137875231503     
 threads/stencilsize/domainsize/reps/iters:         112           8     1000000 1        2560
 plainb time    15.4265658855438       sum   -287.106802232200     
 dummyb time    0.0                    sum   0.0                   
 cmpctb time    18.9166409969330       sum   -287.106801556954     
 threads/stencilsize/domainsize/reps/iters:         112           8    10000000 1         256
 plain time    18.8175580501556       sum    1028.40776727367     
 cmpct time    34.5686240196228       sum    1028.40776727278     
 threads/stencilsize/domainsize/reps/iters:         112           8    10000000 1         256
 plaind time    32.4586961269379       sum    3.65981411850464     
 cmpctd time    64.0757420063019       sum    3.65981411850032     
 threads/stencilsize/domainsize/reps/iters:         112           8    10000000 1         256
 plainb time    16.3571348190308       sum    3.15903363706246     
 dummyb time    0.0                    sum   0.0                   
 cmpctb time    37.5038540363312       sum    3.15903363409581     
 threads/stencilsize/domainsize/reps/iters:         112           8        1000 8      320000
 plain time    1.61005878448486       sum    2970503.01037061     
 cmpct time    1.90104198455811       sum    2970503.01018146     
 threads/stencilsize/domainsize/reps/iters:         112           8        1000 8      320000
 plaind time    3.80677509307861       sum    8.43892900754698     
 cmpctd time    4.16049098968506       sum    8.43892900754698     
 threads/stencilsize/domainsize/reps/iters:         112           8        1000 8      320000
 plainb time    1.70711421966553       sum   -20740.4971004747     
 dummyb time    0.0                    sum   0.0                   
 cmpctb time    1.89973902702332       sum   -20740.4977605782     
 threads/stencilsize/domainsize/reps/iters:         112           8       10000 8       32000
 plain time    1.67275714874268       sum   -2777.71870207374     
 cmpct time    1.98649811744690       sum   -2777.71871298096     
 threads/stencilsize/domainsize/reps/iters:         112           8       10000 8       32000
 plaind time    3.47174787521362       sum  -7.891246369513150E-002
 cmpctd time    4.14908909797668       sum  -7.891246369506111E-002
 threads/stencilsize/domainsize/reps/iters:         112           8       10000 8       32000
 plainb time    1.92248988151550       sum   -22.5531547958726     
 dummyb time    0.0                    sum   0.0                   
 cmpctb time    1.84221482276917       sum   -22.5531919408086     
 threads/stencilsize/domainsize/reps/iters:         112           8      100000 8        3200
 plain time    1.69717693328857       sum    5461.54151231469     
 cmpct time    2.21394300460815       sum    5461.54151204161     
 threads/stencilsize/domainsize/reps/iters:         112           8      100000 8        3200
 plaind time    3.34076118469238       sum    1.55157429314601     
 cmpctd time    4.75181794166565       sum    1.55157429314611     
 threads/stencilsize/domainsize/reps/iters:         112           8      100000 8        3200
 plainb time    1.94679594039917       sum    30.1926531596223     
 dummyb time    0.0                    sum   0.0                   
 cmpctb time    2.34208393096924       sum    30.1926533376040     
 threads/stencilsize/domainsize/reps/iters:         112           8     1000000 8         320
 plain time    1.68437814712524       sum    1130.40534396832     
 cmpct time    2.25241303443909       sum    1130.40534397603     
 threads/stencilsize/domainsize/reps/iters:         112           8     1000000 8         320
 plaind time    3.54361200332642       sum    3.21137881811426     
 cmpctd time    4.82583999633789       sum    3.21137881811418     
 threads/stencilsize/domainsize/reps/iters:         112           8     1000000 8         320
 plainb time    1.94580197334290       sum   -35.8883509292061     
 dummyb time    0.0                    sum   0.0                   
 cmpctb time    2.29594588279724       sum   -35.8883509403277     
 threads/stencilsize/domainsize/reps/iters:         112           8    10000000 8          32
 plain time    1.73753213882446       sum    128.093496771936     
 cmpct time    4.35670495033264       sum    128.093496773303     
 threads/stencilsize/domainsize/reps/iters:         112           8    10000000 8          32
 plaind time    3.81061887741089       sum    3.65981419348692     
 cmpctd time    7.96627402305603       sum    3.65981419348735     
 threads/stencilsize/domainsize/reps/iters:         112           8    10000000 8          32
 plainb time    2.04772806167603       sum   0.393473945292357     
 dummyb time    0.0                    sum   0.0                   
 cmpctb time    4.75205707550049       sum   0.393473944925717     
 threads/stencilsize/domainsize/reps/iters:         112           8        1000 64      320000
 plain time    1.48647093772888       sum    2970503.00768035     
 cmpct time    1.64914917945862       sum    2970503.00752726     
 threads/stencilsize/domainsize/reps/iters:         112           8        1000 64      320000
 plaind time    3.34225797653198       sum    8.43892900238928     
 cmpctd time    3.54024600982666       sum    8.43892900238930     
 threads/stencilsize/domainsize/reps/iters:         112           8        1000 64      320000
 plainb time    1.68541598320007       sum   -20740.4976751135     
 dummyb time    0.0                    sum   0.0                   
 cmpctb time    1.84717512130737       sum   -20740.4978590516     
 threads/stencilsize/domainsize/reps/iters:         112           8       10000 64       32000
 plain time    1.52765798568726       sum   -2777.71872322973     
 cmpct time    1.82763600349426       sum   -2777.71874909942     
 threads/stencilsize/domainsize/reps/iters:         112           8       10000 64       32000
 plaind time    3.14132785797119       sum  -7.891246364688875E-002
 cmpctd time    3.67437601089478       sum  -7.891246364691162E-002
 threads/stencilsize/domainsize/reps/iters:         112           8       10000 64       32000
 plainb time    1.95563602447510       sum   -22.5531900966262     
 dummyb time    0.0                    sum   0.0                   
 cmpctb time    1.78341317176819       sum   -22.5532074360478     
 threads/stencilsize/domainsize/reps/iters:         112           8      100000 64        3200
 plain time    1.54643416404724       sum    5461.54150825745     
 cmpct time    2.16021180152893       sum    5461.54150818489     
 threads/stencilsize/domainsize/reps/iters:         112           8      100000 64        3200
 plaind time    3.19732713699341       sum    1.55157429219754     
 cmpctd time    4.59912800788879       sum    1.55157429219765     
 threads/stencilsize/domainsize/reps/iters:         112           8      100000 64        3200
 plainb time    1.95296192169189       sum    30.1926516516751     
 dummyb time    0.0                    sum   0.0                   
 cmpctb time    2.24667000770569       sum    30.1926524151268     
 threads/stencilsize/domainsize/reps/iters:         112           8     1000000 64         320
 plain time    1.53245687484741       sum    1130.40534330565     
 cmpct time    2.15295696258545       sum    1130.40534328504     
 threads/stencilsize/domainsize/reps/iters:         112           8     1000000 64         320
 plaind time    3.21525287628174       sum    3.21137881615091     
 cmpctd time    4.47353601455688       sum    3.21137881615043     
 threads/stencilsize/domainsize/reps/iters:         112           8     1000000 64         320
 plainb time    1.95227193832397       sum   -35.8883509278627     
 dummyb time    0.0                    sum   0.0                   
 cmpctb time    2.27164006233215       sum   -35.8883509370113     
 threads/stencilsize/domainsize/reps/iters:         112           8    10000000 64          32
 plain time    1.54504203796387       sum    128.093496694026     
 cmpct time    4.33178782463074       sum    128.093496694871     
 threads/stencilsize/domainsize/reps/iters:         112           8    10000000 64          32
 plaind time    3.47488307952881       sum    3.65981419125078     
 cmpctd time    7.95820617675781       sum    3.65981419125136     
 threads/stencilsize/domainsize/reps/iters:         112           8    10000000 64          32
 plainb time    2.05841398239136       sum   0.393473944373156     
 dummyb time    0.0                    sum   0.0                   
 cmpctb time    4.72503709793091       sum   0.393473944958956     
