;;; $Id: globals.ll,v 1.1 10/.0/.0 .1:.1:.2 vmp Exp $

(defvar #:compilo-Metal:*axiome* (when (boundp '#:compilo-Metal:*axiome*) #:compilo-Metal:*axiome*))
(defvar complete (when (boundp 'complete) complete))
(defvar firstnonter (when (boundp 'firstnonter) firstnonter))
(defvar isageneric (when (boundp 'isageneric) isageneric))
(defvar isaxiome (when (boundp 'isaxiome) isaxiome))
(defvar #:compilo-Metal:*langname* (when (boundp '#:compilo-Metal:*langname*) #:compilo-Metal:*langname*))
(defvar #:compilo-Metal:*language* (when (boundp '#:compilo-Metal:*language*) #:compilo-Metal:*language*))
(defvar #:compilo-Metal:*name* (when (boundp '#:compilo-Metal:*name*) #:compilo-Metal:*name*))
(defvar nbpattern (when (boundp 'nbpattern) nbpattern))
(defvar op-list (when (boundp 'op-list) op-list))
(defvar packfunc (when (boundp 'packfunc) packfunc))
(defvar packpattern (when (boundp 'packpattern) packpattern))
(defvar pattern_table (when (boundp 'pattern_table) pattern_table))
(defvar phyl-list (when (boundp 'phyl-list) phyl-list))
(defvar phyltoextend (when (boundp 'phyltoextend) phyltoextend))
(defvar polish-write-linesize (when (boundp 'polish-write-linesize) polish-write-linesize))
(defvar rulenb (when (boundp 'rulenb) rulenb))
