%!PS-Adobe-2.0 EPSF-1.2
%%Creator: llh
%%DocumentFonts: Times-Bold Times-Italic
%%Pages: 1
%%BoundingBox: -54 -98 652 530
%%EndComments

/M{moveto}bind def
/m{rmoveto}bind def
/L{lineto}bind def
/l{rlineto}bind def
/black{0. 0. 0. setrgbcolor}bind def
/darkgrey{0.25 0.25 0.25 setrgbcolor}bind def
/midgrey{0.5 0.5 0.5 setrgbcolor}bind def
/lightgrey{0.75 0.75 0.75 setrgbcolor}bind def
/white{1.0 1.0 1.0 setrgbcolor}bind def

%/cgcolor{0.9 0.9 0.9 setrgbcolor}bind def
%/cfgcolor{0. 0. 0. setrgbcolor}bind def
%/symtabcolor{0.7 0.7 0.7 setrgbcolor}bind def
%/subsymtabcolor{0.9 0.9 0.9 setrgbcolor}bind def

/cgcolor{0.8 0.9 1. setrgbcolor}bind def
/cfgcolor{0.6 0.67 0.80 setrgbcolor}bind def
/symtabcolor{0.8 0.6 0.3 setrgbcolor}bind def
/subsymtabcolor{1.0 0.9 0.7 setrgbcolor}bind def

/pgmfont{/Lucida-Bold findfont 12 scalefont setfont}bind def
/boldfont{/Times-Bold findfont 10 scalefont setfont}bind def
/italfont{/Times-Italic findfont 10 scalefont setfont}bind def
%..........................................................

/cgnode{/hh exch def /ww exch def /yy exch def /xx exch def
 gsave cgcolor xx yy M ww 0 l 0 hh l 0 ww sub 0 l closepath fill grestore
 xx yy M ww 0 l 0 hh l 0 ww sub 0 l closepath stroke} bind def

/curveline{/yy3 exch def /xx3 exch def /yy2 exch def /xx2 exch def
/yy1 exch def /xx1 exch def /yy0 exch def /xx0 exch def
xx0 yy0 M xx1 yy1 xx2 yy2 xx3 yy3 curveto stroke
}bind def

/curvearrow{/tip exch def /yy3 exch def /xx3 exch def /yy2 exch def /xx2 exch def
/yy1 exch def /xx1 exch def /yy0 exch def /xx0 exch def
/d23 tip xx3 xx2 sub dup mul yy3 yy2 sub dup mul add sqrt div def
/xx4 xx3 xx3 xx2 sub d23 mul sub def
/yy4 yy3 yy3 yy2 sub d23 mul sub def
xx0 yy0 M xx1 yy1 xx2 yy2 xx4 yy4 curveto stroke
xx3 yy3 M
xx4 yy3 yy4 sub 2 div add yy4 xx3 xx4 sub 2 div sub L
yy4 yy3 sub xx3 xx4 sub l closepath fill
}bind def

/fgnode{/ll exch def /ww exch def /yy exch def /xx exch def
gsave cfgcolor xx yy M ww 4 add 0 l 0 ll -16 mul 2 sub l -4 ww sub 0 l closepath fill grestore
}bind def

/fginstr{/instr exch def /ll exch def /ww exch def /yy exch def /xx exch def
gsave white xx 2 add yy 2 sub ll 1 sub 16 mul sub M
ww 0 l 0 -14 l 0 ww sub 0 l closepath fill grestore
xx 4 add yy 14 sub ll 1 sub 16 mul sub M instr show
}bind def

/symtab{/text exch def /ll exch def /ww exch def /yy exch def /xx exch def
gsave symtabcolor
xx yy M ww 0 l -3 ll mul 0.4 sub -15 ll mul 2 sub l 0 ww sub 0 l closepath fill
black boldfont xx 3 add yy 10 sub M text show
subsymtabcolor
xx 1 sub yy 15 sub M ww 4 sub 0 l -3 ll 1 sub mul -15 ll 1 sub mul l 4 ww sub 0 l closepath fill
grestore
}bind def

/symbol{/text2 exch def /text1 exch def /ll exch def /yy exch def /xx exch def
xx -3 ll mul add 8 add yy -15 ll mul add 12 sub M
gsave
black pgmfont text1 show (:) show
5 0 m
boldfont text2 show grestore
}bind def

%.....................................................................

3 setlinewidth



black 65 58 75 115 75 200 65 229 10 curvearrow
midgrey -8 450 -60 400 -40 200 -20 161 10 curvearrow
midgrey 0 334 0 310 5 290 15 262 10 curvearrow
midgrey -8 440 -10 440 -30 400 -20 361 10 curvearrow
midgrey 0 134 0 110 5  90 15  62 10 curvearrow
lightgrey -7 159 -20 230 -20 300 -18 329 10 curvearrow

black
1 setlinewidth

10 30 60 30 cgnode
15 47 M boldfont (Unit:) show 5 0 m pgmfont (P7) show
15 35 M boldfont (\(procedure\)) show

-20 130 60 30 cgnode
-15 147 M boldfont (Unit:) show 5 0 m pgmfont (M6) show
-15 135 M boldfont (\(module\)) show

10 230 60 30 cgnode
15 247 M boldfont (Unit:) show 5 0 m pgmfont (P5) show
15 235 M boldfont (\(procedure\)) show

-20 330 60 30 cgnode
-15 347 M boldfont (Unit:) show 5 0 m pgmfont (M3) show
-15 335 M boldfont (\(module\)) show

-10 430 60 30 cgnode
-5 447 M boldfont (Unit:) show 5 0 m pgmfont (Top) show
-5 435 M boldfont (\(root level\)) show

pgmfont
cfgcolor
1 setlinewidth

206 502 M 206 502 5 0 360 arc closepath fill
237 478 233 461 233 451 233 440 7 curvearrow
250 478 255 470 278 478 282 470 7 curvearrow
283 454 283 447 247 453 237 440 7 curvearrow
230 407 227 403 224 399 221 395 7 curvearrow
219 390 M 219 390 5 0 360 arc closepath fill

136 362 M 135 362 5 0 360 arc closepath fill
166 321 163 317 160 313 157 309 7 curvearrow
155 305 M 155 305 5 0 360 arc closepath fill

226 282 M 226 282 5 0 360 arc closepath fill
270 257 270 252 270 247 270 240 7 curvearrow
270 223 270 221 270 219 270 210 7 curvearrow
270 194 280 180 320 180 320 200 curveline
320 200 320 220 315 233 304 232 7 curvearrow
256 222 248 214 221 216 214 208 7 curvearrow
210 205 M 210 205 5 0 360 arc closepath fill

136 161 M 136 161 5 0 360 arc closepath fill
166 104 163 101 160 97 157 93 7 curvearrow
156 88 M 156 88 5 0 360 arc closepath fill

226 61 M 226 61 5 0 360 arc closepath fill
259 37 240 30 230 25 221 21 7 curvearrow
214 2 214 0 214 -4 214 -9 7 curvearrow
214 -41 214 -55 170 -55 170 -20 curveline
170 -20 170 0 170 15 184 15 7 curvearrow
236 4 260 -10 256 -40 260 -60 7 curvearrow
279 38 289 34 299 30 310 10 7 curvearrow
310 -39 300 -45 290 -52 274 -58 7 curvearrow
253 -75 250 -79 247 -83 244 -87 7 curvearrow
243 -92 M 243 -92 5 0 360 arc closepath fill

gsave
0.5 setlinewidth
[3 3] 0 setdash
50 455 102 477 140 498 200 502 6 curvearrow
50 435 100 403 145 390 214 388 6 curvearrow
40 353 70 360 100 365 130 362 6 curvearrow
40 340 70 310 116 304 149 304 6 curvearrow
71 255 122 267 171 278 221 284 6 curvearrow
71 236 119 227 163 219 204 206 6 curvearrow
40 156 75 160 105 160 131 162 6 curvearrow
40 138 73 112 110 88 150 88 6 curvearrow
71 53 121 58 174 59 220 62 6 curvearrow
71 39 131 -3 157 -89 237 -91 6 curvearrow
grestore

black

210 510 40 2 fgnode
210 510 40 1 () fginstr
210 510 40 2 (if \(...\)) fginstr

270 470 20 1 fgnode
270 470 20 1 () fginstr

200 440 80 2 fgnode
200 440 80 1 (module M3) fginstr
200 440 80 2 (module M6) fginstr

140 370 100 3 fgnode
140 370 100 1 () fginstr
140 370 100 2 (procedure P5\(...\)) fginstr
140 370 100 3 () fginstr

230 290 80 2 fgnode
230 290 80 1 (real :: A\(:\),b) fginstr
230 290 80 2 (integer :: i) fginstr

240 240 60 1 fgnode
240 240 60 1 (do i=1,50) fginstr

240 210 55 1 fgnode
240 210 55 1 (A\(i\) = b*i) fginstr

140 170 100 4 fgnode
140 170 100 1 (use M3) fginstr
140 170 100 2 (real :: v = 2.0) fginstr
140 170 100 3 (procedure P7\(...\)) fginstr
140 170 100 4 () fginstr

230 70 80 2 fgnode
230 70 80 1 (integer :: i) fginstr
230 70 80 2 (if \(...\)) fginstr

270 10 70 3 fgnode
270 10 70 1 (real :: tmp) fginstr
270 10 70 2 (v = ...) fginstr
270 10 70 3 (call P5\(...\)) fginstr

185 20 60 1 fgnode
185 20 60 1 (do i=1,9) fginstr

190 -10 50 2 fgnode
190 -10 50 1 () fginstr
190 -10 50 2 () fginstr

230 -60 70 1 fgnode
230 -60 70 1 () fginstr

symtabcolor
430 360 430 360 430 360 480 408 6 curvearrow
580 350 580 350 580 350 520 408 6 curvearrow
420 250 420 250 420 250 427 319 6 curvearrow
550 140 550 140 550 140 577 319 6 curvearrow
530  30 530  30 530  30 543 113 6 curvearrow
510 -56 510 -56 510 -56 520 -11 6 curvearrow
gsave
0.5 setlinewidth
[2 4] 0 setdash
253 508 339 507 412 504 458 493 6 curvearrow
243 367 297 364 351 370 386 373 6 curvearrow
313 288 337 285 359 284 377 284 6 curvearrow
243 167 336 158 427 158 503 170 6 curvearrow
313 67 377 70 441 69 482 73 6 curvearrow
343 8 394 -4 419 -43 458 -45 6 curvearrow
grestore

black
460 500 100 6 (root Symbol Table:) symtab
460 500 1 (M6) (module) symbol
460 500 2 (M3) (module) symbol
388 380 100 4 (Symbol Table of M3:) symtab
388 380 2 (P5) (procedure) symbol
380 290 100 6 (Symbol Table of P5:) symtab
380 290 1 (A) (variable, real\(:\)) symbol
380 290 2 (b) (variable, real) symbol
380 290 3 (i) (variable, integer) symbol
522 380 130 4 (Symbol Table of M3 \(copy\):) symtab
522 380 1 (P5) (procedure) symbol
505 175 100 4 (Symbol Table of M6:) symtab
505 175 1 (P7) (procedure) symbol
505 175 2 (v) (variable, real) symbol
485  80 100 6 (Symbol Table of P7:) symtab
485  80 2 (i) (variable, integer) symbol
460 -40 100 2.5 (Local Symbol Table:) symtab
460 -40 1 (tmp) (variable, real) symbol

gsave
0.5 setlinewidth
[1 4] 0 setdash
520 461 550 445 500 420 400 405 curveline
400 405 100 360  50 380 35 362 6 curvearrow
525 475 590 461 590 510 490 520 curveline
490 520 190 535 100 530  10 495 curveline
 10 495 -80 460 -55 185 -21 150 6 curvearrow
459 340 474 328 466 308 427 305.5 curveline
596 357 660 300 359 304 313 304 curveline
313 304 175 304 40 279 30 261 6 curvearrow
579 150 610 150 600 100 500 100 curveline
500 100 300 100 132 73 71 57 6 curvearrow
grestore

