%!PS-Adobe-2.0 EPSF-1.2
%%Creator: llh
%%DocumentFonts: Times-Bold Times-Italic
%%Pages: 1
%%BoundingBox: 0 140 455 357
%%EndComments

/M{moveto}bind def
/m{rmoveto}bind def
/L{lineto}bind def
/l{rlineto}bind def
/black{0. 0. 0. setrgbcolor}bind def
/analysiscolor{0.8 1. 0.8 setrgbcolor}bind def
/resultcolor{0.8 0.9 1. setrgbcolor}bind def
/ft2 /Times-Bold findfont 10 scalefont def
/mainfont{ft2 setfont}bind def
/ft3 /Times-Italic findfont 10 scalefont def
/italfont{ft3 setfont}bind def
%..........................................................
% CALL FORMAT: x0 y0 x1 y1 tip arrowpoint
% Draws an arrow point, of size <tip>,
% pointing from point <x0>,<y0> to point <x1>,<y1>
% with its point at position <x1>,<y1>.
%======================================
/arrowpoint{/tip exch def
            /y1 exch def /x1 exch def
            /y0 exch def /x0 exch def
    /dx x0 x1 sub def /dy y0 y1 sub def
    /norm dx dx mul dy dy mul add sqrt def
    /ndx dx norm div tip mul def
    /ndy dy norm div tip mul def
    x1 y1 M
    ndx ndy 2 div sub ndy ndx 2 div add rlineto
    ndy 0 ndx sub rlineto closepath fill}bind def
%.....................................................................
% CALL FORMAT: x0 y0 x1 y1 e1 e2 wid tip curvearrow
% Draws a curve arrow of width <wid> with a tip of size <tip>,
% from point <x0>,<y0> to point <x1>,<y1>
% The curve differs from the straight line by
% a quantity <e1> at 1/3 of the length and <e2> at 2/3.
% Negative <e1> and <e2> mean leftwards when looking
% at the destination from the origin.
% the line itself stops a little before,
% to get a nice point at the tip.
%=========================================
/curvearrow{/tip exch def /wid exch def
            /e2 exch def /e1 exch def
            /y1 exch def /x1 exch def
            /y0 exch def /x0 exch def
    gsave
    /dx x1 x0 sub 3 div def /dy y1 y0 sub 3 div def
    /ae1 e1 e1 mul sqrt def /ae2 e2 e2 mul sqrt def
    /ix0 x0 dx add e1 dy mul add dx ae1 mul 3 div sub def
    /iy0 y0 dy add e1 dx mul sub dy ae1 mul 3 div sub def
    /ix1 x1 dx sub e2 dy mul add dx ae2 mul 3 div add def
    /iy1 y1 dy sub e2 dx mul sub dy ae2 mul 3 div add def
    /dx x1 ix1 sub def /dy y1 iy1 sub def
    /norm dx dx mul dy dy mul add sqrt def
    /ex x1 dx tip mul norm div 2 div sub def
    /ey y1 dy tip mul norm div 2 div sub def
    wid setlinewidth
    x0 y0 M
    ix0 iy0 ix1 iy1 ex ey curveto stroke
    ix1 iy1 x1 y1 tip arrowpoint grestore}bind def
%.....................................................................
% CALL FORMAT: n1 n2 max
% Returns the max of <n1> and <n2> on the stack.
%===============================================
/max{dup 3 2 roll dup 4 3 roll gt {exch} if pop}bind def
%.....................................................................
% CALL FORMAT: xx yy str resshow1
% Draws the string <str> in normal font and in a rectangular box
% centered around point <xx>,<yy>.
%=================================
/resshow1{/str exch def /yy exch def /xx exch def
  gsave mainfont black
  /strwid str stringwidth pop def
  gsave
  resultcolor
  xx strwid 2 div sub 3 sub yy 5 sub M
  0 13 l strwid 6 add 0 l 0 -13 l closepath fill
  grestore
  xx strwid 2 div sub yy 2 sub M str show
  xx strwid 2 div sub 3 sub yy 5 sub M
  0 13 l strwid 6 add 0 l 0 -13 l closepath stroke
  grestore}bind def
%.....................................................................
% CALL FORMAT: xx yy str1 str2 resshow2
% Draws the string <str1> , above <str2>, in normal font
% and in a rectangular box centered around point <xx>,<yy>.
%================================================
/resshow2{/str2 exch def /str1 exch def /yy exch def /xx exch def
  gsave mainfont black
  /strwid1 str1 stringwidth pop def
  /strwid2 str2 stringwidth pop def
  /strwid strwid1 strwid2 max def
  gsave
  resultcolor
  xx strwid 2 div sub 3 sub yy 10 sub M
  0 26 l strwid 6 add 0 l 0 -26 l closepath fill
  grestore
  xx strwid1 2 div sub yy 4 add M str1 show
  xx strwid2 2 div sub yy 6 sub M str2 show
  xx strwid 2 div sub 3 sub yy 10 sub M
  0 26 l strwid 6 add 0 l 0 -26 l closepath stroke
  grestore}bind def
%.....................................................................
% CALL FORMAT: xx yy str anashow1
% Draws the string <str> in italic font
% and in a elliptic box centered around point <xx>,<yy>.
%=======================================================
/anashow1{/str exch def /yy exch def /xx exch def
  gsave italfont black
  /strwid str stringwidth pop def
  gsave
  analysiscolor
  xx yy translate strwid 6 add 12 div 1 scale
  10 0 M 0 0 10 0 360 arc closepath fill
  grestore
  xx strwid 2 div sub yy 2 sub M str show
  xx yy translate strwid 6 add 12 div 1 scale
  10 0 M 0 0 10 0 360 arc closepath stroke
  grestore}bind def
%.....................................................................
% CALL FORMAT: xx yy str1 str2 anashow2
% Draws the string <str1> , above <str2>, in italic font
% and in a elliptic box centered around point <xx>,<yy>.
%=======================================================
/anashow2{/str2 exch def /str1 exch def /yy exch def /xx exch def
  gsave italfont black
  /strwid1 str1 stringwidth pop def
  /strwid2 str2 stringwidth pop def
  /strwid strwid1 strwid2 max def
  gsave
  analysiscolor
  xx yy translate strwid 6 add 20 div 1 scale
  14 0 M 0 0 14 0 360 arc closepath fill
  grestore
  xx strwid1 2 div sub yy 2 add M str1 show
  xx strwid2 2 div sub yy 7 sub M str2 show
  xx yy translate strwid 6 add 20 div 1 scale
  14 0 M 0 0 14 0 360 arc closepath stroke
  grestore}bind def
%.....................................................................
% CALL FORMAT: xx yy sz ang pointe
% Draws a filled triangle of size <sz>, pointing to angle <ang>, and
% with point at position <xx>,<yy>. <ang> = 0 points to the right.
%=================================================================
/pointe{/ang exch def /sz exch def
  gsave M ang rotate
  0 sz sub 0 sz 2 div sub l 0 sz l closepath fill
  grestore}bind def
%.....................................................................

/needs{.5 4 curvearrow}bind def

73 290 125 290 .1 .1 needs
92 317 125 295 .1 .1 needs
99 335 125 300 .1 .1 needs

140 290 140 261 .1 .1 needs
140 238 140 214 .1 .1 needs

106 200 67 189 .3 .5 needs
 50 163 74 150 .4 .5 needs
145 150 173 154 .1 0 needs

146 188 175 161 .5 .5 needs
276 159 311 187 .5 .5 needs

320 206 320 232 .1 .1 needs
318 259 320 286 .1 .1 needs

331 290 385 293 .1 .1 needs
331 295 366 311 .1 .1 needs
331 300 358 332 .1 .1 needs

80 342 (C) (parser) anashow2
60 317 (Fortran95) (parser) anashow2
40 292 (Fortran77) (parser) anashow2

140 297 (IL) (Tree) resshow2

140 247 (Internal representation) (builder) anashow2

140 197 (Internal) (Representation) resshow2

45 177 (Data-Flow) (analysis) anashow2

110 149 (Data-Flow info) resshow1

230 157 (Differentiation) anashow1

320 197 (Internal) (Representation) resshow2

320 247 (IL Tree) (rebuilder) anashow2

320 297 (IL) (Tree) resshow2

380 342 (C) (printer) anashow2
400 317 (Fortran95) (printer) anashow2
420 292 (Fortran77) (printer) anashow2
